G04 #@! TF.GenerationSoftware,KiCad,Pcbnew,5.1.10*
G04 #@! TF.CreationDate,2021-09-15T10:08:04+02:00*
G04 #@! TF.ProjectId,ams_iot_reader,616d735f-696f-4745-9f72-65616465722e,rev?*
G04 #@! TF.SameCoordinates,Original*
G04 #@! TF.FileFunction,Legend,Top*
G04 #@! TF.FilePolarity,Positive*
%FSLAX46Y46*%
G04 Gerber Fmt 4.6, Leading zero omitted, Abs format (unit mm)*
G04 Created by KiCad (PCBNEW 5.1.10) date 2021-09-15 10:08:04*
%MOMM*%
%LPD*%
G01*
G04 APERTURE LIST*
%ADD10C,0.150000*%
%ADD11C,0.200000*%
%ADD12C,0.120000*%
%ADD13C,0.250000*%
G04 APERTURE END LIST*
D10*
X137747857Y-74956571D02*
X137890714Y-75004190D01*
X137938333Y-75051809D01*
X137985952Y-75147047D01*
X137985952Y-75289904D01*
X137938333Y-75385142D01*
X137890714Y-75432761D01*
X137795476Y-75480380D01*
X137414523Y-75480380D01*
X137414523Y-74480380D01*
X137747857Y-74480380D01*
X137843095Y-74528000D01*
X137890714Y-74575619D01*
X137938333Y-74670857D01*
X137938333Y-74766095D01*
X137890714Y-74861333D01*
X137843095Y-74908952D01*
X137747857Y-74956571D01*
X137414523Y-74956571D01*
X138605000Y-74480380D02*
X138795476Y-74480380D01*
X138890714Y-74528000D01*
X138985952Y-74623238D01*
X139033571Y-74813714D01*
X139033571Y-75147047D01*
X138985952Y-75337523D01*
X138890714Y-75432761D01*
X138795476Y-75480380D01*
X138605000Y-75480380D01*
X138509761Y-75432761D01*
X138414523Y-75337523D01*
X138366904Y-75147047D01*
X138366904Y-74813714D01*
X138414523Y-74623238D01*
X138509761Y-74528000D01*
X138605000Y-74480380D01*
X139652619Y-74480380D02*
X139843095Y-74480380D01*
X139938333Y-74528000D01*
X140033571Y-74623238D01*
X140081190Y-74813714D01*
X140081190Y-75147047D01*
X140033571Y-75337523D01*
X139938333Y-75432761D01*
X139843095Y-75480380D01*
X139652619Y-75480380D01*
X139557380Y-75432761D01*
X139462142Y-75337523D01*
X139414523Y-75147047D01*
X139414523Y-74813714D01*
X139462142Y-74623238D01*
X139557380Y-74528000D01*
X139652619Y-74480380D01*
X140366904Y-74480380D02*
X140938333Y-74480380D01*
X140652619Y-75480380D02*
X140652619Y-74480380D01*
X148795476Y-104978000D02*
X148719285Y-104939904D01*
X148605000Y-104939904D01*
X148490714Y-104978000D01*
X148414523Y-105054190D01*
X148376428Y-105130380D01*
X148338333Y-105282761D01*
X148338333Y-105397047D01*
X148376428Y-105549428D01*
X148414523Y-105625619D01*
X148490714Y-105701809D01*
X148605000Y-105739904D01*
X148681190Y-105739904D01*
X148795476Y-105701809D01*
X148833571Y-105663714D01*
X148833571Y-105397047D01*
X148681190Y-105397047D01*
X149176428Y-105739904D02*
X149176428Y-104939904D01*
X149633571Y-105739904D01*
X149633571Y-104939904D01*
X150014523Y-105739904D02*
X150014523Y-104939904D01*
X150205000Y-104939904D01*
X150319285Y-104978000D01*
X150395476Y-105054190D01*
X150433571Y-105130380D01*
X150471666Y-105282761D01*
X150471666Y-105397047D01*
X150433571Y-105549428D01*
X150395476Y-105625619D01*
X150319285Y-105701809D01*
X150205000Y-105739904D01*
X150014523Y-105739904D01*
X145814523Y-104939904D02*
X146309761Y-104939904D01*
X146043095Y-105244666D01*
X146157380Y-105244666D01*
X146233571Y-105282761D01*
X146271666Y-105320857D01*
X146309761Y-105397047D01*
X146309761Y-105587523D01*
X146271666Y-105663714D01*
X146233571Y-105701809D01*
X146157380Y-105739904D01*
X145928809Y-105739904D01*
X145852619Y-105701809D01*
X145814523Y-105663714D01*
X146538333Y-104939904D02*
X146805000Y-105739904D01*
X147071666Y-104939904D01*
X147262142Y-104939904D02*
X147757380Y-104939904D01*
X147490714Y-105244666D01*
X147605000Y-105244666D01*
X147681190Y-105282761D01*
X147719285Y-105320857D01*
X147757380Y-105397047D01*
X147757380Y-105587523D01*
X147719285Y-105663714D01*
X147681190Y-105701809D01*
X147605000Y-105739904D01*
X147376428Y-105739904D01*
X147300238Y-105701809D01*
X147262142Y-105663714D01*
X142837876Y-103510604D02*
X143295019Y-103510604D01*
X143066447Y-104310604D02*
X143066447Y-103510604D01*
X143485495Y-103510604D02*
X144018828Y-104310604D01*
X144018828Y-103510604D02*
X143485495Y-104310604D01*
X140799466Y-104310604D02*
X140532800Y-103929652D01*
X140342323Y-104310604D02*
X140342323Y-103510604D01*
X140647085Y-103510604D01*
X140723276Y-103548700D01*
X140761371Y-103586795D01*
X140799466Y-103662985D01*
X140799466Y-103777271D01*
X140761371Y-103853461D01*
X140723276Y-103891557D01*
X140647085Y-103929652D01*
X140342323Y-103929652D01*
X141066133Y-103510604D02*
X141599466Y-104310604D01*
X141599466Y-103510604D02*
X141066133Y-104310604D01*
D11*
X129166880Y-101599833D02*
X128166880Y-101599833D01*
X128166880Y-101218880D01*
X128214500Y-101123642D01*
X128262119Y-101076023D01*
X128357357Y-101028404D01*
X128500214Y-101028404D01*
X128595452Y-101076023D01*
X128643071Y-101123642D01*
X128690690Y-101218880D01*
X128690690Y-101599833D01*
X128166880Y-100695071D02*
X129166880Y-100456976D01*
X128452595Y-100266500D01*
X129166880Y-100076023D01*
X128166880Y-99837928D01*
X129166880Y-98885547D02*
X128690690Y-99218880D01*
X129166880Y-99456976D02*
X128166880Y-99456976D01*
X128166880Y-99076023D01*
X128214500Y-98980785D01*
X128262119Y-98933166D01*
X128357357Y-98885547D01*
X128500214Y-98885547D01*
X128595452Y-98933166D01*
X128643071Y-98980785D01*
X128690690Y-99076023D01*
X128690690Y-99456976D01*
X131294166Y-101806214D02*
X131294166Y-101330023D01*
X131579880Y-101901452D02*
X130579880Y-101568119D01*
X131579880Y-101234785D01*
X131579880Y-100901452D02*
X130579880Y-100901452D01*
X131294166Y-100568119D01*
X130579880Y-100234785D01*
X131579880Y-100234785D01*
X131532261Y-99806214D02*
X131579880Y-99663357D01*
X131579880Y-99425261D01*
X131532261Y-99330023D01*
X131484642Y-99282404D01*
X131389404Y-99234785D01*
X131294166Y-99234785D01*
X131198928Y-99282404D01*
X131151309Y-99330023D01*
X131103690Y-99425261D01*
X131056071Y-99615738D01*
X131008452Y-99710976D01*
X130960833Y-99758595D01*
X130865595Y-99806214D01*
X130770357Y-99806214D01*
X130675119Y-99758595D01*
X130627500Y-99710976D01*
X130579880Y-99615738D01*
X130579880Y-99377642D01*
X130627500Y-99234785D01*
X134262761Y-101750714D02*
X134310380Y-101607857D01*
X134310380Y-101369761D01*
X134262761Y-101274523D01*
X134215142Y-101226904D01*
X134119904Y-101179285D01*
X134024666Y-101179285D01*
X133929428Y-101226904D01*
X133881809Y-101274523D01*
X133834190Y-101369761D01*
X133786571Y-101560238D01*
X133738952Y-101655476D01*
X133691333Y-101703095D01*
X133596095Y-101750714D01*
X133500857Y-101750714D01*
X133405619Y-101703095D01*
X133358000Y-101655476D01*
X133310380Y-101560238D01*
X133310380Y-101322142D01*
X133358000Y-101179285D01*
X134310380Y-100750714D02*
X133310380Y-100750714D01*
X133310380Y-100512619D01*
X133358000Y-100369761D01*
X133453238Y-100274523D01*
X133548476Y-100226904D01*
X133738952Y-100179285D01*
X133881809Y-100179285D01*
X134072285Y-100226904D01*
X134167523Y-100274523D01*
X134262761Y-100369761D01*
X134310380Y-100512619D01*
X134310380Y-100750714D01*
X138072880Y-101917333D02*
X139072880Y-101679238D01*
X138358595Y-101488761D01*
X139072880Y-101298285D01*
X138072880Y-101060190D01*
X139072880Y-100679238D02*
X138072880Y-100679238D01*
X138549071Y-99869714D02*
X138549071Y-100203047D01*
X139072880Y-100203047D02*
X138072880Y-100203047D01*
X138072880Y-99726857D01*
X139072880Y-99345904D02*
X138072880Y-99345904D01*
X105664071Y-103727214D02*
X105625976Y-103765309D01*
X105511690Y-103803404D01*
X105435500Y-103803404D01*
X105321214Y-103765309D01*
X105245023Y-103689119D01*
X105206928Y-103612928D01*
X105168833Y-103460547D01*
X105168833Y-103346261D01*
X105206928Y-103193880D01*
X105245023Y-103117690D01*
X105321214Y-103041500D01*
X105435500Y-103003404D01*
X105511690Y-103003404D01*
X105625976Y-103041500D01*
X105664071Y-103079595D01*
X106006928Y-103803404D02*
X106006928Y-103003404D01*
X106006928Y-103384357D02*
X106464071Y-103384357D01*
X106464071Y-103803404D02*
X106464071Y-103003404D01*
X107264071Y-103041500D02*
X107187880Y-103003404D01*
X107073595Y-103003404D01*
X106959309Y-103041500D01*
X106883119Y-103117690D01*
X106845023Y-103193880D01*
X106806928Y-103346261D01*
X106806928Y-103460547D01*
X106845023Y-103612928D01*
X106883119Y-103689119D01*
X106959309Y-103765309D01*
X107073595Y-103803404D01*
X107149785Y-103803404D01*
X107264071Y-103765309D01*
X107302166Y-103727214D01*
X107302166Y-103460547D01*
X107149785Y-103460547D01*
D12*
X149259700Y-104641200D02*
X149259700Y-103838730D01*
X149259700Y-103223670D02*
X149259700Y-102421200D01*
X148054700Y-104641200D02*
X149259700Y-104641200D01*
X148054700Y-102421200D02*
X149259700Y-102421200D01*
X148054700Y-104641200D02*
X148054700Y-104094671D01*
X148054700Y-102967729D02*
X148054700Y-102421200D01*
X147294700Y-104641200D02*
X146534700Y-104641200D01*
X146534700Y-104641200D02*
X146534700Y-103531200D01*
X140910900Y-101022600D02*
X140910900Y-101825070D01*
X140910900Y-102440130D02*
X140910900Y-103242600D01*
X142115900Y-101022600D02*
X140910900Y-101022600D01*
X142115900Y-103242600D02*
X140910900Y-103242600D01*
X142115900Y-101022600D02*
X142115900Y-101569129D01*
X142115900Y-102696071D02*
X142115900Y-103242600D01*
X142875900Y-101022600D02*
X143635900Y-101022600D01*
X143635900Y-101022600D02*
X143635900Y-102132600D01*
X147811758Y-101382500D02*
X147337242Y-101382500D01*
X147811758Y-100337500D02*
X147337242Y-100337500D01*
X99640000Y-109230000D02*
X101240000Y-109230000D01*
X101240000Y-106030000D02*
X98940000Y-106030000D01*
X98913000Y-98806000D02*
X98913000Y-100756000D01*
X98913000Y-98806000D02*
X98913000Y-96856000D01*
X104033000Y-98806000D02*
X104033000Y-100756000D01*
X104033000Y-98806000D02*
X104033000Y-95356000D01*
X121094500Y-86360000D02*
X110934500Y-86360000D01*
X121094500Y-78740000D02*
X121094500Y-86360000D01*
X110934500Y-78740000D02*
X121094500Y-78740000D01*
X110934500Y-86360000D02*
X110934500Y-78740000D01*
D13*
X110680500Y-85344000D02*
G75*
G03*
X110680500Y-85344000I-254000J0D01*
G01*
D12*
X129352124Y-77344800D02*
X128842676Y-77344800D01*
X129352124Y-76299800D02*
X128842676Y-76299800D01*
X132348500Y-75858276D02*
X132348500Y-76367724D01*
X131303500Y-75858276D02*
X131303500Y-76367724D01*
X96696000Y-99401724D02*
X96696000Y-98892276D01*
X97741000Y-99401724D02*
X97741000Y-98892276D01*
X100434224Y-111012500D02*
X99924776Y-111012500D01*
X100434224Y-109967500D02*
X99924776Y-109967500D01*
X106694500Y-96876776D02*
X106694500Y-97386224D01*
X105649500Y-96876776D02*
X105649500Y-97386224D01*
X129110000Y-107464776D02*
X129110000Y-107974224D01*
X128065000Y-107464776D02*
X128065000Y-107974224D01*
X136730000Y-107464776D02*
X136730000Y-107974224D01*
X135685000Y-107464776D02*
X135685000Y-107974224D01*
X139079500Y-107464776D02*
X139079500Y-107974224D01*
X138034500Y-107464776D02*
X138034500Y-107974224D01*
X103275224Y-94502500D02*
X102765776Y-94502500D01*
X103275224Y-93457500D02*
X102765776Y-93457500D01*
X131650000Y-107417776D02*
X131650000Y-107927224D01*
X130605000Y-107417776D02*
X130605000Y-107927224D01*
X134317000Y-107417776D02*
X134317000Y-107927224D01*
X133272000Y-107417776D02*
X133272000Y-107927224D01*
X110120500Y-78551248D02*
X110120500Y-79073752D01*
X108700500Y-78551248D02*
X108700500Y-79073752D01*
X110247500Y-84012248D02*
X110247500Y-84534752D01*
X108827500Y-84012248D02*
X108827500Y-84534752D01*
X116245724Y-76722500D02*
X115736276Y-76722500D01*
X116245724Y-75677500D02*
X115736276Y-75677500D01*
X110479924Y-89384400D02*
X109970476Y-89384400D01*
X110479924Y-88339400D02*
X109970476Y-88339400D01*
X118070724Y-96471000D02*
X117561276Y-96471000D01*
X118070724Y-95426000D02*
X117561276Y-95426000D01*
X112063000Y-77066224D02*
X112063000Y-76556776D01*
X113108000Y-77066224D02*
X113108000Y-76556776D01*
X94155000Y-94128000D02*
X94155000Y-94578000D01*
X92305000Y-94128000D02*
X94155000Y-94128000D01*
X89755000Y-101928000D02*
X90005000Y-101928000D01*
X89755000Y-94128000D02*
X90005000Y-94128000D01*
X92305000Y-101928000D02*
X94155000Y-101928000D01*
X94155000Y-101928000D02*
X94155000Y-101478000D01*
X94705000Y-96328000D02*
X94705000Y-96778000D01*
X94705000Y-96328000D02*
X94255000Y-96328000D01*
X103386000Y-75248000D02*
X103886000Y-75748000D01*
X104386000Y-75248000D02*
X103386000Y-75248000D01*
X103886000Y-75748000D02*
X104386000Y-75248000D01*
X89806000Y-75933000D02*
X89806000Y-91453000D01*
X107766000Y-91453000D02*
X89806000Y-91453000D01*
X107766000Y-91453000D02*
X107766000Y-75933000D01*
X107766000Y-75933000D02*
X89806000Y-75933000D01*
X121586000Y-112974000D02*
G75*
G03*
X122086000Y-112474000I0J500000D01*
G01*
X111086000Y-112474000D02*
G75*
G03*
X111586000Y-112974000I500000J0D01*
G01*
X111586000Y-112274000D02*
X111086000Y-112374000D01*
X112886000Y-111974000D02*
X111586000Y-112274000D01*
X114386000Y-111774000D02*
X112886000Y-111974000D01*
X115686000Y-111674000D02*
X114386000Y-111774000D01*
X117486000Y-111674000D02*
X115686000Y-111674000D01*
X118786000Y-111774000D02*
X117486000Y-111674000D01*
X119586000Y-111874000D02*
X118786000Y-111774000D01*
X121286000Y-112174000D02*
X119586000Y-111874000D01*
X122086000Y-112374000D02*
X121286000Y-112174000D01*
X121586000Y-112974000D02*
X111586000Y-112974000D01*
X122086000Y-111474000D02*
X122086000Y-112474000D01*
X111086000Y-111474000D02*
X111086000Y-112474000D01*
X123496000Y-111474000D02*
X109676000Y-111474000D01*
X109676000Y-97554000D02*
X123496000Y-97554000D01*
X109676000Y-100254000D02*
X109676000Y-97554000D01*
X109676000Y-111474000D02*
X109676000Y-111074000D01*
X109676000Y-108554000D02*
X109676000Y-102774000D01*
X123496000Y-100254000D02*
X123496000Y-97554000D01*
X123496000Y-108554000D02*
X123496000Y-102774000D01*
X123496000Y-111474000D02*
X123496000Y-111074000D01*
X105212000Y-99829000D02*
X105212000Y-102689000D01*
X105212000Y-102689000D02*
X107132000Y-102689000D01*
X107132000Y-102689000D02*
X107132000Y-99829000D01*
X127627500Y-103022000D02*
X127627500Y-105882000D01*
X127627500Y-105882000D02*
X129547500Y-105882000D01*
X129547500Y-105882000D02*
X129547500Y-103022000D01*
X135247500Y-103022000D02*
X135247500Y-105882000D01*
X135247500Y-105882000D02*
X137167500Y-105882000D01*
X137167500Y-105882000D02*
X137167500Y-103022000D01*
X137597000Y-103004000D02*
X137597000Y-105864000D01*
X137597000Y-105864000D02*
X139517000Y-105864000D01*
X139517000Y-105864000D02*
X139517000Y-103004000D01*
X130167500Y-103004000D02*
X130167500Y-105864000D01*
X130167500Y-105864000D02*
X132087500Y-105864000D01*
X132087500Y-105864000D02*
X132087500Y-103004000D01*
X132834500Y-103013000D02*
X132834500Y-105873000D01*
X132834500Y-105873000D02*
X134754500Y-105873000D01*
X134754500Y-105873000D02*
X134754500Y-103013000D01*
X96518000Y-94888267D02*
X96518000Y-94595733D01*
X97538000Y-94888267D02*
X97538000Y-94595733D01*
X121151433Y-77341000D02*
X121443967Y-77341000D01*
X121151433Y-78361000D02*
X121443967Y-78361000D01*
X129293667Y-75681300D02*
X129001133Y-75681300D01*
X129293667Y-74661300D02*
X129001133Y-74661300D01*
X103634000Y-107396233D02*
X103634000Y-107688767D01*
X102614000Y-107396233D02*
X102614000Y-107688767D01*
X98046000Y-107396233D02*
X98046000Y-107688767D01*
X97026000Y-107396233D02*
X97026000Y-107688767D01*
X100183733Y-102868000D02*
X100476267Y-102868000D01*
X100183733Y-103888000D02*
X100476267Y-103888000D01*
X116187267Y-78234000D02*
X115894733Y-78234000D01*
X116187267Y-77214000D02*
X115894733Y-77214000D01*
X110357967Y-91022900D02*
X110065433Y-91022900D01*
X110357967Y-90002900D02*
X110065433Y-90002900D01*
X110357967Y-87720900D02*
X110065433Y-87720900D01*
X110357967Y-86700900D02*
X110065433Y-86700900D01*
X107122500Y-106662267D02*
X107122500Y-106369733D01*
X108142500Y-106662267D02*
X108142500Y-106369733D01*
X147720580Y-99688000D02*
X147439420Y-99688000D01*
X147720580Y-98668000D02*
X147439420Y-98668000D01*
X148584420Y-75245500D02*
X148865580Y-75245500D01*
X148584420Y-76265500D02*
X148865580Y-76265500D01*
X148642233Y-76833000D02*
X148934767Y-76833000D01*
X148642233Y-77853000D02*
X148934767Y-77853000D01*
X92425500Y-108708500D02*
X93227970Y-108708500D01*
X93843030Y-108708500D02*
X94645500Y-108708500D01*
X92425500Y-107503500D02*
X92425500Y-108708500D01*
X94645500Y-107503500D02*
X94645500Y-108708500D01*
X92425500Y-107503500D02*
X92972029Y-107503500D01*
X94098971Y-107503500D02*
X94645500Y-107503500D01*
X92425500Y-106743500D02*
X92425500Y-105983500D01*
X92425500Y-105983500D02*
X93535500Y-105983500D01*
D10*
X149771666Y-101239904D02*
X149505000Y-100858952D01*
X149314523Y-101239904D02*
X149314523Y-100439904D01*
X149619285Y-100439904D01*
X149695476Y-100478000D01*
X149733571Y-100516095D01*
X149771666Y-100592285D01*
X149771666Y-100706571D01*
X149733571Y-100782761D01*
X149695476Y-100820857D01*
X149619285Y-100858952D01*
X149314523Y-100858952D01*
X150533571Y-101239904D02*
X150076428Y-101239904D01*
X150305000Y-101239904D02*
X150305000Y-100439904D01*
X150228809Y-100554190D01*
X150152619Y-100630380D01*
X150076428Y-100668476D01*
X124928380Y-97853404D02*
X125737904Y-97853404D01*
X125833142Y-97805785D01*
X125880761Y-97758166D01*
X125928380Y-97662928D01*
X125928380Y-97472452D01*
X125880761Y-97377214D01*
X125833142Y-97329595D01*
X125737904Y-97281976D01*
X124928380Y-97281976D01*
X125023619Y-96853404D02*
X124976000Y-96805785D01*
X124928380Y-96710547D01*
X124928380Y-96472452D01*
X124976000Y-96377214D01*
X125023619Y-96329595D01*
X125118857Y-96281976D01*
X125214095Y-96281976D01*
X125356952Y-96329595D01*
X125928380Y-96901023D01*
X125928380Y-96281976D01*
X99678095Y-104632380D02*
X99678095Y-105441904D01*
X99725714Y-105537142D01*
X99773333Y-105584761D01*
X99868571Y-105632380D01*
X100059047Y-105632380D01*
X100154285Y-105584761D01*
X100201904Y-105537142D01*
X100249523Y-105441904D01*
X100249523Y-104632380D01*
X101154285Y-104965714D02*
X101154285Y-105632380D01*
X100916190Y-104584761D02*
X100678095Y-105299047D01*
X101297142Y-105299047D01*
X102616095Y-102830380D02*
X102616095Y-103639904D01*
X102663714Y-103735142D01*
X102711333Y-103782761D01*
X102806571Y-103830380D01*
X102997047Y-103830380D01*
X103092285Y-103782761D01*
X103139904Y-103735142D01*
X103187523Y-103639904D01*
X103187523Y-102830380D01*
X103568476Y-102830380D02*
X104187523Y-102830380D01*
X103854190Y-103211333D01*
X103997047Y-103211333D01*
X104092285Y-103258952D01*
X104139904Y-103306571D01*
X104187523Y-103401809D01*
X104187523Y-103639904D01*
X104139904Y-103735142D01*
X104092285Y-103782761D01*
X103997047Y-103830380D01*
X103711333Y-103830380D01*
X103616095Y-103782761D01*
X103568476Y-103735142D01*
X121424776Y-79165504D02*
X121424776Y-79813123D01*
X121462871Y-79889314D01*
X121500966Y-79927409D01*
X121577157Y-79965504D01*
X121729538Y-79965504D01*
X121805728Y-79927409D01*
X121843823Y-79889314D01*
X121881919Y-79813123D01*
X121881919Y-79165504D01*
X122681919Y-79965504D02*
X122224776Y-79965504D01*
X122453347Y-79965504D02*
X122453347Y-79165504D01*
X122377157Y-79279790D01*
X122300966Y-79355980D01*
X122224776Y-79394076D01*
X125660214Y-77146104D02*
X125393547Y-76765152D01*
X125203071Y-77146104D02*
X125203071Y-76346104D01*
X125507833Y-76346104D01*
X125584023Y-76384200D01*
X125622119Y-76422295D01*
X125660214Y-76498485D01*
X125660214Y-76612771D01*
X125622119Y-76688961D01*
X125584023Y-76727057D01*
X125507833Y-76765152D01*
X125203071Y-76765152D01*
X126422119Y-77146104D02*
X125964976Y-77146104D01*
X126193547Y-77146104D02*
X126193547Y-76346104D01*
X126117357Y-76460390D01*
X126041166Y-76536580D01*
X125964976Y-76574676D01*
X126879261Y-76688961D02*
X126803071Y-76650866D01*
X126764976Y-76612771D01*
X126726880Y-76536580D01*
X126726880Y-76498485D01*
X126764976Y-76422295D01*
X126803071Y-76384200D01*
X126879261Y-76346104D01*
X127031642Y-76346104D01*
X127107833Y-76384200D01*
X127145928Y-76422295D01*
X127184023Y-76498485D01*
X127184023Y-76536580D01*
X127145928Y-76612771D01*
X127107833Y-76650866D01*
X127031642Y-76688961D01*
X126879261Y-76688961D01*
X126803071Y-76727057D01*
X126764976Y-76765152D01*
X126726880Y-76841342D01*
X126726880Y-76993723D01*
X126764976Y-77069914D01*
X126803071Y-77108009D01*
X126879261Y-77146104D01*
X127031642Y-77146104D01*
X127107833Y-77108009D01*
X127145928Y-77069914D01*
X127184023Y-76993723D01*
X127184023Y-76841342D01*
X127145928Y-76765152D01*
X127107833Y-76727057D01*
X127031642Y-76688961D01*
X133508704Y-77438185D02*
X133127752Y-77704852D01*
X133508704Y-77895328D02*
X132708704Y-77895328D01*
X132708704Y-77590566D01*
X132746800Y-77514376D01*
X132784895Y-77476280D01*
X132861085Y-77438185D01*
X132975371Y-77438185D01*
X133051561Y-77476280D01*
X133089657Y-77514376D01*
X133127752Y-77590566D01*
X133127752Y-77895328D01*
X133508704Y-76676280D02*
X133508704Y-77133423D01*
X133508704Y-76904852D02*
X132708704Y-76904852D01*
X132822990Y-76981042D01*
X132899180Y-77057233D01*
X132937276Y-77133423D01*
X132708704Y-76409614D02*
X132708704Y-75876280D01*
X133508704Y-76219138D01*
X97670880Y-102941357D02*
X97194690Y-103274690D01*
X97670880Y-103512785D02*
X96670880Y-103512785D01*
X96670880Y-103131833D01*
X96718500Y-103036595D01*
X96766119Y-102988976D01*
X96861357Y-102941357D01*
X97004214Y-102941357D01*
X97099452Y-102988976D01*
X97147071Y-103036595D01*
X97194690Y-103131833D01*
X97194690Y-103512785D01*
X97670880Y-101988976D02*
X97670880Y-102560404D01*
X97670880Y-102274690D02*
X96670880Y-102274690D01*
X96813738Y-102369928D01*
X96908976Y-102465166D01*
X96956595Y-102560404D01*
X96670880Y-101131833D02*
X96670880Y-101322309D01*
X96718500Y-101417547D01*
X96766119Y-101465166D01*
X96908976Y-101560404D01*
X97099452Y-101608023D01*
X97480404Y-101608023D01*
X97575642Y-101560404D01*
X97623261Y-101512785D01*
X97670880Y-101417547D01*
X97670880Y-101227071D01*
X97623261Y-101131833D01*
X97575642Y-101084214D01*
X97480404Y-101036595D01*
X97242309Y-101036595D01*
X97147071Y-101084214D01*
X97099452Y-101131833D01*
X97051833Y-101227071D01*
X97051833Y-101417547D01*
X97099452Y-101512785D01*
X97147071Y-101560404D01*
X97242309Y-101608023D01*
X96448642Y-110942380D02*
X96115309Y-110466190D01*
X95877214Y-110942380D02*
X95877214Y-109942380D01*
X96258166Y-109942380D01*
X96353404Y-109990000D01*
X96401023Y-110037619D01*
X96448642Y-110132857D01*
X96448642Y-110275714D01*
X96401023Y-110370952D01*
X96353404Y-110418571D01*
X96258166Y-110466190D01*
X95877214Y-110466190D01*
X97401023Y-110942380D02*
X96829595Y-110942380D01*
X97115309Y-110942380D02*
X97115309Y-109942380D01*
X97020071Y-110085238D01*
X96924833Y-110180476D01*
X96829595Y-110228095D01*
X98305785Y-109942380D02*
X97829595Y-109942380D01*
X97781976Y-110418571D01*
X97829595Y-110370952D01*
X97924833Y-110323333D01*
X98162928Y-110323333D01*
X98258166Y-110370952D01*
X98305785Y-110418571D01*
X98353404Y-110513809D01*
X98353404Y-110751904D01*
X98305785Y-110847142D01*
X98258166Y-110894761D01*
X98162928Y-110942380D01*
X97924833Y-110942380D01*
X97829595Y-110894761D01*
X97781976Y-110847142D01*
X106624380Y-94622857D02*
X106148190Y-94956190D01*
X106624380Y-95194285D02*
X105624380Y-95194285D01*
X105624380Y-94813333D01*
X105672000Y-94718095D01*
X105719619Y-94670476D01*
X105814857Y-94622857D01*
X105957714Y-94622857D01*
X106052952Y-94670476D01*
X106100571Y-94718095D01*
X106148190Y-94813333D01*
X106148190Y-95194285D01*
X106624380Y-93670476D02*
X106624380Y-94241904D01*
X106624380Y-93956190D02*
X105624380Y-93956190D01*
X105767238Y-94051428D01*
X105862476Y-94146666D01*
X105910095Y-94241904D01*
X105957714Y-92813333D02*
X106624380Y-92813333D01*
X105576761Y-93051428D02*
X106291047Y-93289523D01*
X106291047Y-92670476D01*
X101682614Y-92957604D02*
X101415947Y-92576652D01*
X101225471Y-92957604D02*
X101225471Y-92157604D01*
X101530233Y-92157604D01*
X101606423Y-92195700D01*
X101644519Y-92233795D01*
X101682614Y-92309985D01*
X101682614Y-92424271D01*
X101644519Y-92500461D01*
X101606423Y-92538557D01*
X101530233Y-92576652D01*
X101225471Y-92576652D01*
X102444519Y-92957604D02*
X101987376Y-92957604D01*
X102215947Y-92957604D02*
X102215947Y-92157604D01*
X102139757Y-92271890D01*
X102063566Y-92348080D01*
X101987376Y-92386176D01*
X102939757Y-92157604D02*
X103015947Y-92157604D01*
X103092138Y-92195700D01*
X103130233Y-92233795D01*
X103168328Y-92309985D01*
X103206423Y-92462366D01*
X103206423Y-92652842D01*
X103168328Y-92805223D01*
X103130233Y-92881414D01*
X103092138Y-92919509D01*
X103015947Y-92957604D01*
X102939757Y-92957604D01*
X102863566Y-92919509D01*
X102825471Y-92881414D01*
X102787376Y-92805223D01*
X102749280Y-92652842D01*
X102749280Y-92462366D01*
X102787376Y-92309985D01*
X102825471Y-92233795D01*
X102863566Y-92195700D01*
X102939757Y-92157604D01*
X109340666Y-76625404D02*
X109074000Y-76244452D01*
X108883523Y-76625404D02*
X108883523Y-75825404D01*
X109188285Y-75825404D01*
X109264476Y-75863500D01*
X109302571Y-75901595D01*
X109340666Y-75977785D01*
X109340666Y-76092071D01*
X109302571Y-76168261D01*
X109264476Y-76206357D01*
X109188285Y-76244452D01*
X108883523Y-76244452D01*
X109607333Y-75825404D02*
X110140666Y-75825404D01*
X109797809Y-76625404D01*
X109150166Y-82022904D02*
X108883500Y-81641952D01*
X108693023Y-82022904D02*
X108693023Y-81222904D01*
X108997785Y-81222904D01*
X109073976Y-81261000D01*
X109112071Y-81299095D01*
X109150166Y-81375285D01*
X109150166Y-81489571D01*
X109112071Y-81565761D01*
X109073976Y-81603857D01*
X108997785Y-81641952D01*
X108693023Y-81641952D01*
X109835880Y-81222904D02*
X109683500Y-81222904D01*
X109607309Y-81261000D01*
X109569214Y-81299095D01*
X109493023Y-81413380D01*
X109454928Y-81565761D01*
X109454928Y-81870523D01*
X109493023Y-81946714D01*
X109531119Y-81984809D01*
X109607309Y-82022904D01*
X109759690Y-82022904D01*
X109835880Y-81984809D01*
X109873976Y-81946714D01*
X109912071Y-81870523D01*
X109912071Y-81680047D01*
X109873976Y-81603857D01*
X109835880Y-81565761D01*
X109759690Y-81527666D01*
X109607309Y-81527666D01*
X109531119Y-81565761D01*
X109493023Y-81603857D01*
X109454928Y-81680047D01*
X118243366Y-76549204D02*
X117976700Y-76168252D01*
X117786223Y-76549204D02*
X117786223Y-75749204D01*
X118090985Y-75749204D01*
X118167176Y-75787300D01*
X118205271Y-75825395D01*
X118243366Y-75901585D01*
X118243366Y-76015871D01*
X118205271Y-76092061D01*
X118167176Y-76130157D01*
X118090985Y-76168252D01*
X117786223Y-76168252D01*
X118967176Y-75749204D02*
X118586223Y-75749204D01*
X118548128Y-76130157D01*
X118586223Y-76092061D01*
X118662414Y-76053966D01*
X118852890Y-76053966D01*
X118929080Y-76092061D01*
X118967176Y-76130157D01*
X119005271Y-76206347D01*
X119005271Y-76396823D01*
X118967176Y-76473014D01*
X118929080Y-76511109D01*
X118852890Y-76549204D01*
X118662414Y-76549204D01*
X118586223Y-76511109D01*
X118548128Y-76473014D01*
X112718866Y-89236504D02*
X112452200Y-88855552D01*
X112261723Y-89236504D02*
X112261723Y-88436504D01*
X112566485Y-88436504D01*
X112642676Y-88474600D01*
X112680771Y-88512695D01*
X112718866Y-88588885D01*
X112718866Y-88703171D01*
X112680771Y-88779361D01*
X112642676Y-88817457D01*
X112566485Y-88855552D01*
X112261723Y-88855552D01*
X113404580Y-88703171D02*
X113404580Y-89236504D01*
X113214104Y-88398409D02*
X113023628Y-88969838D01*
X113518866Y-88969838D01*
X118006833Y-94813380D02*
X117673500Y-94337190D01*
X117435404Y-94813380D02*
X117435404Y-93813380D01*
X117816357Y-93813380D01*
X117911595Y-93861000D01*
X117959214Y-93908619D01*
X118006833Y-94003857D01*
X118006833Y-94146714D01*
X117959214Y-94241952D01*
X117911595Y-94289571D01*
X117816357Y-94337190D01*
X117435404Y-94337190D01*
X118340166Y-93813380D02*
X118959214Y-93813380D01*
X118625880Y-94194333D01*
X118768738Y-94194333D01*
X118863976Y-94241952D01*
X118911595Y-94289571D01*
X118959214Y-94384809D01*
X118959214Y-94622904D01*
X118911595Y-94718142D01*
X118863976Y-94765761D01*
X118768738Y-94813380D01*
X118483023Y-94813380D01*
X118387785Y-94765761D01*
X118340166Y-94718142D01*
X111517404Y-76944833D02*
X111136452Y-77211500D01*
X111517404Y-77401976D02*
X110717404Y-77401976D01*
X110717404Y-77097214D01*
X110755500Y-77021023D01*
X110793595Y-76982928D01*
X110869785Y-76944833D01*
X110984071Y-76944833D01*
X111060261Y-76982928D01*
X111098357Y-77021023D01*
X111136452Y-77097214D01*
X111136452Y-77401976D01*
X110793595Y-76640071D02*
X110755500Y-76601976D01*
X110717404Y-76525785D01*
X110717404Y-76335309D01*
X110755500Y-76259119D01*
X110793595Y-76221023D01*
X110869785Y-76182928D01*
X110945976Y-76182928D01*
X111060261Y-76221023D01*
X111517404Y-76678166D01*
X111517404Y-76182928D01*
X122221666Y-95718380D02*
X122221666Y-96432666D01*
X122174047Y-96575523D01*
X122078809Y-96670761D01*
X121935952Y-96718380D01*
X121840714Y-96718380D01*
X123221666Y-96718380D02*
X122650238Y-96718380D01*
X122935952Y-96718380D02*
X122935952Y-95718380D01*
X122840714Y-95861238D01*
X122745476Y-95956476D01*
X122650238Y-96004095D01*
X96450214Y-92843314D02*
X96412119Y-92881409D01*
X96297833Y-92919504D01*
X96221642Y-92919504D01*
X96107357Y-92881409D01*
X96031166Y-92805219D01*
X95993071Y-92729028D01*
X95954976Y-92576647D01*
X95954976Y-92462361D01*
X95993071Y-92309980D01*
X96031166Y-92233790D01*
X96107357Y-92157600D01*
X96221642Y-92119504D01*
X96297833Y-92119504D01*
X96412119Y-92157600D01*
X96450214Y-92195695D01*
X97212119Y-92919504D02*
X96754976Y-92919504D01*
X96983547Y-92919504D02*
X96983547Y-92119504D01*
X96907357Y-92233790D01*
X96831166Y-92309980D01*
X96754976Y-92348076D01*
X97478785Y-92119504D02*
X97974023Y-92119504D01*
X97707357Y-92424266D01*
X97821642Y-92424266D01*
X97897833Y-92462361D01*
X97935928Y-92500457D01*
X97974023Y-92576647D01*
X97974023Y-92767123D01*
X97935928Y-92843314D01*
X97897833Y-92881409D01*
X97821642Y-92919504D01*
X97593071Y-92919504D01*
X97516880Y-92881409D01*
X97478785Y-92843314D01*
X121583514Y-76854014D02*
X121545419Y-76892109D01*
X121431133Y-76930204D01*
X121354942Y-76930204D01*
X121240657Y-76892109D01*
X121164466Y-76815919D01*
X121126371Y-76739728D01*
X121088276Y-76587347D01*
X121088276Y-76473061D01*
X121126371Y-76320680D01*
X121164466Y-76244490D01*
X121240657Y-76168300D01*
X121354942Y-76130204D01*
X121431133Y-76130204D01*
X121545419Y-76168300D01*
X121583514Y-76206395D01*
X122345419Y-76930204D02*
X121888276Y-76930204D01*
X122116847Y-76930204D02*
X122116847Y-76130204D01*
X122040657Y-76244490D01*
X121964466Y-76320680D01*
X121888276Y-76358776D01*
X122650180Y-76206395D02*
X122688276Y-76168300D01*
X122764466Y-76130204D01*
X122954942Y-76130204D01*
X123031133Y-76168300D01*
X123069228Y-76206395D01*
X123107323Y-76282585D01*
X123107323Y-76358776D01*
X123069228Y-76473061D01*
X122612085Y-76930204D01*
X123107323Y-76930204D01*
X125558614Y-75457014D02*
X125520519Y-75495109D01*
X125406233Y-75533204D01*
X125330042Y-75533204D01*
X125215757Y-75495109D01*
X125139566Y-75418919D01*
X125101471Y-75342728D01*
X125063376Y-75190347D01*
X125063376Y-75076061D01*
X125101471Y-74923680D01*
X125139566Y-74847490D01*
X125215757Y-74771300D01*
X125330042Y-74733204D01*
X125406233Y-74733204D01*
X125520519Y-74771300D01*
X125558614Y-74809395D01*
X126320519Y-75533204D02*
X125863376Y-75533204D01*
X126091947Y-75533204D02*
X126091947Y-74733204D01*
X126015757Y-74847490D01*
X125939566Y-74923680D01*
X125863376Y-74961776D01*
X127082423Y-75533204D02*
X126625280Y-75533204D01*
X126853852Y-75533204D02*
X126853852Y-74733204D01*
X126777661Y-74847490D01*
X126701471Y-74923680D01*
X126625280Y-74961776D01*
X104911142Y-108185357D02*
X104958761Y-108232976D01*
X105006380Y-108375833D01*
X105006380Y-108471071D01*
X104958761Y-108613928D01*
X104863523Y-108709166D01*
X104768285Y-108756785D01*
X104577809Y-108804404D01*
X104434952Y-108804404D01*
X104244476Y-108756785D01*
X104149238Y-108709166D01*
X104054000Y-108613928D01*
X104006380Y-108471071D01*
X104006380Y-108375833D01*
X104054000Y-108232976D01*
X104101619Y-108185357D01*
X105006380Y-107232976D02*
X105006380Y-107804404D01*
X105006380Y-107518690D02*
X104006380Y-107518690D01*
X104149238Y-107613928D01*
X104244476Y-107709166D01*
X104292095Y-107804404D01*
X104006380Y-106613928D02*
X104006380Y-106518690D01*
X104054000Y-106423452D01*
X104101619Y-106375833D01*
X104196857Y-106328214D01*
X104387333Y-106280595D01*
X104625428Y-106280595D01*
X104815904Y-106328214D01*
X104911142Y-106375833D01*
X104958761Y-106423452D01*
X105006380Y-106518690D01*
X105006380Y-106613928D01*
X104958761Y-106709166D01*
X104911142Y-106756785D01*
X104815904Y-106804404D01*
X104625428Y-106852023D01*
X104387333Y-106852023D01*
X104196857Y-106804404D01*
X104101619Y-106756785D01*
X104054000Y-106709166D01*
X104006380Y-106613928D01*
X97369333Y-105259142D02*
X97321714Y-105306761D01*
X97178857Y-105354380D01*
X97083619Y-105354380D01*
X96940761Y-105306761D01*
X96845523Y-105211523D01*
X96797904Y-105116285D01*
X96750285Y-104925809D01*
X96750285Y-104782952D01*
X96797904Y-104592476D01*
X96845523Y-104497238D01*
X96940761Y-104402000D01*
X97083619Y-104354380D01*
X97178857Y-104354380D01*
X97321714Y-104402000D01*
X97369333Y-104449619D01*
X97845523Y-105354380D02*
X98036000Y-105354380D01*
X98131238Y-105306761D01*
X98178857Y-105259142D01*
X98274095Y-105116285D01*
X98321714Y-104925809D01*
X98321714Y-104544857D01*
X98274095Y-104449619D01*
X98226476Y-104402000D01*
X98131238Y-104354380D01*
X97940761Y-104354380D01*
X97845523Y-104402000D01*
X97797904Y-104449619D01*
X97750285Y-104544857D01*
X97750285Y-104782952D01*
X97797904Y-104878190D01*
X97845523Y-104925809D01*
X97940761Y-104973428D01*
X98131238Y-104973428D01*
X98226476Y-104925809D01*
X98274095Y-104878190D01*
X98321714Y-104782952D01*
X100163333Y-102305142D02*
X100115714Y-102352761D01*
X99972857Y-102400380D01*
X99877619Y-102400380D01*
X99734761Y-102352761D01*
X99639523Y-102257523D01*
X99591904Y-102162285D01*
X99544285Y-101971809D01*
X99544285Y-101828952D01*
X99591904Y-101638476D01*
X99639523Y-101543238D01*
X99734761Y-101448000D01*
X99877619Y-101400380D01*
X99972857Y-101400380D01*
X100115714Y-101448000D01*
X100163333Y-101495619D01*
X100734761Y-101828952D02*
X100639523Y-101781333D01*
X100591904Y-101733714D01*
X100544285Y-101638476D01*
X100544285Y-101590857D01*
X100591904Y-101495619D01*
X100639523Y-101448000D01*
X100734761Y-101400380D01*
X100925238Y-101400380D01*
X101020476Y-101448000D01*
X101068095Y-101495619D01*
X101115714Y-101590857D01*
X101115714Y-101638476D01*
X101068095Y-101733714D01*
X101020476Y-101781333D01*
X100925238Y-101828952D01*
X100734761Y-101828952D01*
X100639523Y-101876571D01*
X100591904Y-101924190D01*
X100544285Y-102019428D01*
X100544285Y-102209904D01*
X100591904Y-102305142D01*
X100639523Y-102352761D01*
X100734761Y-102400380D01*
X100925238Y-102400380D01*
X101020476Y-102352761D01*
X101068095Y-102305142D01*
X101115714Y-102209904D01*
X101115714Y-102019428D01*
X101068095Y-101924190D01*
X101020476Y-101876571D01*
X100925238Y-101828952D01*
X118344966Y-78009714D02*
X118306871Y-78047809D01*
X118192585Y-78085904D01*
X118116395Y-78085904D01*
X118002109Y-78047809D01*
X117925919Y-77971619D01*
X117887823Y-77895428D01*
X117849728Y-77743047D01*
X117849728Y-77628761D01*
X117887823Y-77476380D01*
X117925919Y-77400190D01*
X118002109Y-77324000D01*
X118116395Y-77285904D01*
X118192585Y-77285904D01*
X118306871Y-77324000D01*
X118344966Y-77362095D01*
X118611633Y-77285904D02*
X119144966Y-77285904D01*
X118802109Y-78085904D01*
X112782366Y-90811314D02*
X112744271Y-90849409D01*
X112629985Y-90887504D01*
X112553795Y-90887504D01*
X112439509Y-90849409D01*
X112363319Y-90773219D01*
X112325223Y-90697028D01*
X112287128Y-90544647D01*
X112287128Y-90430361D01*
X112325223Y-90277980D01*
X112363319Y-90201790D01*
X112439509Y-90125600D01*
X112553795Y-90087504D01*
X112629985Y-90087504D01*
X112744271Y-90125600D01*
X112782366Y-90163695D01*
X113468080Y-90087504D02*
X113315700Y-90087504D01*
X113239509Y-90125600D01*
X113201414Y-90163695D01*
X113125223Y-90277980D01*
X113087128Y-90430361D01*
X113087128Y-90735123D01*
X113125223Y-90811314D01*
X113163319Y-90849409D01*
X113239509Y-90887504D01*
X113391890Y-90887504D01*
X113468080Y-90849409D01*
X113506176Y-90811314D01*
X113544271Y-90735123D01*
X113544271Y-90544647D01*
X113506176Y-90468457D01*
X113468080Y-90430361D01*
X113391890Y-90392266D01*
X113239509Y-90392266D01*
X113163319Y-90430361D01*
X113125223Y-90468457D01*
X113087128Y-90544647D01*
X112668066Y-87509314D02*
X112629971Y-87547409D01*
X112515685Y-87585504D01*
X112439495Y-87585504D01*
X112325209Y-87547409D01*
X112249019Y-87471219D01*
X112210923Y-87395028D01*
X112172828Y-87242647D01*
X112172828Y-87128361D01*
X112210923Y-86975980D01*
X112249019Y-86899790D01*
X112325209Y-86823600D01*
X112439495Y-86785504D01*
X112515685Y-86785504D01*
X112629971Y-86823600D01*
X112668066Y-86861695D01*
X113391876Y-86785504D02*
X113010923Y-86785504D01*
X112972828Y-87166457D01*
X113010923Y-87128361D01*
X113087114Y-87090266D01*
X113277590Y-87090266D01*
X113353780Y-87128361D01*
X113391876Y-87166457D01*
X113429971Y-87242647D01*
X113429971Y-87433123D01*
X113391876Y-87509314D01*
X113353780Y-87547409D01*
X113277590Y-87585504D01*
X113087114Y-87585504D01*
X113010923Y-87547409D01*
X112972828Y-87509314D01*
X106656142Y-108116666D02*
X106703761Y-108164285D01*
X106751380Y-108307142D01*
X106751380Y-108402380D01*
X106703761Y-108545238D01*
X106608523Y-108640476D01*
X106513285Y-108688095D01*
X106322809Y-108735714D01*
X106179952Y-108735714D01*
X105989476Y-108688095D01*
X105894238Y-108640476D01*
X105799000Y-108545238D01*
X105751380Y-108402380D01*
X105751380Y-108307142D01*
X105799000Y-108164285D01*
X105846619Y-108116666D01*
X106084714Y-107259523D02*
X106751380Y-107259523D01*
X105703761Y-107497619D02*
X106418047Y-107735714D01*
X106418047Y-107116666D01*
X149771666Y-99463714D02*
X149733571Y-99501809D01*
X149619285Y-99539904D01*
X149543095Y-99539904D01*
X149428809Y-99501809D01*
X149352619Y-99425619D01*
X149314523Y-99349428D01*
X149276428Y-99197047D01*
X149276428Y-99082761D01*
X149314523Y-98930380D01*
X149352619Y-98854190D01*
X149428809Y-98778000D01*
X149543095Y-98739904D01*
X149619285Y-98739904D01*
X149733571Y-98778000D01*
X149771666Y-98816095D01*
X150038333Y-98739904D02*
X150533571Y-98739904D01*
X150266904Y-99044666D01*
X150381190Y-99044666D01*
X150457380Y-99082761D01*
X150495476Y-99120857D01*
X150533571Y-99197047D01*
X150533571Y-99387523D01*
X150495476Y-99463714D01*
X150457380Y-99501809D01*
X150381190Y-99539904D01*
X150152619Y-99539904D01*
X150076428Y-99501809D01*
X150038333Y-99463714D01*
X145938333Y-75885142D02*
X145890714Y-75932761D01*
X145747857Y-75980380D01*
X145652619Y-75980380D01*
X145509761Y-75932761D01*
X145414523Y-75837523D01*
X145366904Y-75742285D01*
X145319285Y-75551809D01*
X145319285Y-75408952D01*
X145366904Y-75218476D01*
X145414523Y-75123238D01*
X145509761Y-75028000D01*
X145652619Y-74980380D01*
X145747857Y-74980380D01*
X145890714Y-75028000D01*
X145938333Y-75075619D01*
X146319285Y-75075619D02*
X146366904Y-75028000D01*
X146462142Y-74980380D01*
X146700238Y-74980380D01*
X146795476Y-75028000D01*
X146843095Y-75075619D01*
X146890714Y-75170857D01*
X146890714Y-75266095D01*
X146843095Y-75408952D01*
X146271666Y-75980380D01*
X146890714Y-75980380D01*
X145938333Y-77885142D02*
X145890714Y-77932761D01*
X145747857Y-77980380D01*
X145652619Y-77980380D01*
X145509761Y-77932761D01*
X145414523Y-77837523D01*
X145366904Y-77742285D01*
X145319285Y-77551809D01*
X145319285Y-77408952D01*
X145366904Y-77218476D01*
X145414523Y-77123238D01*
X145509761Y-77028000D01*
X145652619Y-76980380D01*
X145747857Y-76980380D01*
X145890714Y-77028000D01*
X145938333Y-77075619D01*
X146890714Y-77980380D02*
X146319285Y-77980380D01*
X146605000Y-77980380D02*
X146605000Y-76980380D01*
X146509761Y-77123238D01*
X146414523Y-77218476D01*
X146319285Y-77266095D01*
X95700857Y-108527690D02*
X95738952Y-108413404D01*
X95777047Y-108375309D01*
X95853238Y-108337214D01*
X95967523Y-108337214D01*
X96043714Y-108375309D01*
X96081809Y-108413404D01*
X96119904Y-108489595D01*
X96119904Y-108794357D01*
X95319904Y-108794357D01*
X95319904Y-108527690D01*
X95358000Y-108451500D01*
X95396095Y-108413404D01*
X95472285Y-108375309D01*
X95548476Y-108375309D01*
X95624666Y-108413404D01*
X95662761Y-108451500D01*
X95700857Y-108527690D01*
X95700857Y-108794357D01*
X95891333Y-108032452D02*
X95891333Y-107651500D01*
X96119904Y-108108642D02*
X95319904Y-107841976D01*
X96119904Y-107575309D01*
X95319904Y-107422928D02*
X95319904Y-106965785D01*
X96119904Y-107194357D02*
X95319904Y-107194357D01*
X95319904Y-106813404D02*
X95319904Y-106356261D01*
X96119904Y-106584833D02*
X95319904Y-106584833D01*
X96119904Y-105670547D02*
X96119904Y-106127690D01*
X96119904Y-105899119D02*
X95319904Y-105899119D01*
X95434190Y-105975309D01*
X95510380Y-106051500D01*
X95548476Y-106127690D01*
M02*
