EESchema Schematic File Version 4
EELAYER 30 0
EELAYER END
$Descr A3 16535 11693
encoding utf-8
Sheet 1 1
Title "IoT AMS Meter"
Date "2021-09-04"
Rev "Rev1"
Comp ""
Comment1 ""
Comment2 ""
Comment3 ""
Comment4 ""
$EndDescr
$Comp
L ams_iot_reader:TSS721A U1
U 1 1 6129503A
P 2350 2100
F 0 "U1" H 2325 2831 50  0000 C CNN
F 1 "TSS721A" H 2325 2740 50  0000 C CNN
F 2 "ams_iot_reader:R-PDSO-G16" H 2300 1100 50  0001 C CNN
F 3 "https://www.ti.com/lit/ds/symlink/tss721a.pdf?HQS=dis-dk-null-digikeymode-dsf-pf-null-wwe&ts=1630056503644&ref_url=https%253A%252F%252Fwww.ti.com%252Fgeneral%252Fdocs%252Fsuppproductinfo.tsp%253FdistId%253D10%2526gotoUrl%253Dhttps%253A%252F%252Fwww.ti.com%252Flit%252Fgpn%252Ftss721a" H 2600 2600 50  0001 C CNN
	1    2350 2100
	1    0    0    -1  
$EndComp
Wire Wire Line
	8550 7300 8550 7400
$Comp
L power:Earth #PWR0101
U 1 1 613459E7
P 8550 7400
F 0 "#PWR0101" H 8550 7150 50  0001 C CNN
F 1 "Earth" H 8550 7250 50  0001 C CNN
F 2 "" H 8550 7400 50  0001 C CNN
F 3 "~" H 8550 7400 50  0001 C CNN
	1    8550 7400
	1    0    0    -1  
$EndComp
Wire Wire Line
	8400 7250 8500 7250
$Comp
L ams_iot_reader:ESP32-S2-WROVER U2
U 1 1 61347BA8
P 8550 5950
F 0 "U2" H 8100 7000 50  0000 C CNN
F 1 "ESP32-S2-WROVER" H 9000 7000 50  0000 C CNN
F 2 "ams_iot_reader:ESP32-S2-WROVER-I" H 7750 4050 50  0001 C CNN
F 3 "https://www.espressif.com/sites/default/files/documentation/esp32-s2-wrover_esp32-s2-wrover-i_datasheet_en.pdf" H 8850 4750 50  0001 C CNN
F 4 "https://no.mouser.com/datasheet/2/891/esp32_s2_datasheet_en-1773066.pdf" H 8500 4200 50  0001 C CNN "Datasheet MCU"
F 5 "NOK 19,16" H 8550 5950 50  0001 C CNN "Price"
	1    8550 5950
	1    0    0    -1  
$EndComp
$Comp
L power:+3V3 #PWR0102
U 1 1 6134B43E
P 8550 3950
F 0 "#PWR0102" H 8550 3800 50  0001 C CNN
F 1 "+3V3" H 8565 4123 50  0000 C CNN
F 2 "" H 8550 3950 50  0001 C CNN
F 3 "" H 8550 3950 50  0001 C CNN
	1    8550 3950
	1    0    0    -1  
$EndComp
Wire Wire Line
	8550 4850 8550 4150
$Comp
L Device:C C2
U 1 1 6134F0EF
P 9300 4450
F 0 "C2" H 9415 4496 50  0000 L CNN
F 1 "22uF" H 9415 4405 50  0000 L CNN
F 2 "Capacitor_SMD:C_0603_1608Metric" H 9338 4300 50  0001 C CNN
F 3 "~" H 9300 4450 50  0001 C CNN
	1    9300 4450
	1    0    0    -1  
$EndComp
Wire Wire Line
	8550 4150 9000 4150
Connection ~ 8550 4150
Wire Wire Line
	8700 4600 9000 4600
Wire Wire Line
	9300 4300 9000 4300
Wire Wire Line
	9000 4150 9000 4300
Connection ~ 9000 4300
Wire Wire Line
	9000 4300 8700 4300
$Comp
L power:Earth #PWR0103
U 1 1 6135791A
P 9000 4700
F 0 "#PWR0103" H 9000 4450 50  0001 C CNN
F 1 "Earth" H 9000 4550 50  0001 C CNN
F 2 "" H 9000 4700 50  0001 C CNN
F 3 "~" H 9000 4700 50  0001 C CNN
	1    9000 4700
	1    0    0    -1  
$EndComp
Wire Wire Line
	9000 4600 9000 4700
Connection ~ 9000 4600
Wire Wire Line
	9000 4600 9300 4600
$Comp
L Device:C C1
U 1 1 6134ED1B
P 8700 4450
F 0 "C1" H 8815 4496 50  0000 L CNN
F 1 "0.1uF" H 8815 4405 50  0000 L CNN
F 2 "Capacitor_SMD:C_0603_1608Metric_Pad1.08x0.95mm_HandSolder" H 8738 4300 50  0001 C CNN
F 3 "~" H 8700 4450 50  0001 C CNN
	1    8700 4450
	1    0    0    -1  
$EndComp
Wire Wire Line
	9150 5100 10050 5100
$Comp
L Device:C C3
U 1 1 6135BC40
P 10050 5350
F 0 "C3" H 10165 5396 50  0000 L CNN
F 1 "C" H 10165 5305 50  0000 L CNN
F 2 "Capacitor_SMD:C_0603_1608Metric" H 10088 5200 50  0001 C CNN
F 3 "~" H 10050 5350 50  0001 C CNN
	1    10050 5350
	1    0    0    -1  
$EndComp
Wire Wire Line
	10050 5100 10050 5200
Wire Wire Line
	10050 5100 10050 4950
Connection ~ 10050 5100
$Comp
L Device:R R1
U 1 1 6135D417
P 10050 4800
F 0 "R1" H 9980 4754 50  0000 R CNN
F 1 "R" H 9980 4845 50  0000 R CNN
F 2 "Resistor_SMD:R_0603_1608Metric" V 9980 4800 50  0001 C CNN
F 3 "~" H 10050 4800 50  0001 C CNN
	1    10050 4800
	-1   0    0    1   
$EndComp
Wire Wire Line
	10050 4650 10050 4550
$Comp
L power:+3V3 #PWR0104
U 1 1 6135DD79
P 10050 4550
F 0 "#PWR0104" H 10050 4400 50  0001 C CNN
F 1 "+3V3" H 10065 4723 50  0000 C CNN
F 2 "" H 10050 4550 50  0001 C CNN
F 3 "" H 10050 4550 50  0001 C CNN
	1    10050 4550
	1    0    0    -1  
$EndComp
Wire Wire Line
	10050 5500 10050 5600
$Comp
L power:Earth #PWR0105
U 1 1 613672EC
P 10050 5600
F 0 "#PWR0105" H 10050 5350 50  0001 C CNN
F 1 "Earth" H 10050 5450 50  0001 C CNN
F 2 "" H 10050 5600 50  0001 C CNN
F 3 "~" H 10050 5600 50  0001 C CNN
	1    10050 5600
	1    0    0    -1  
$EndComp
Wire Wire Line
	8400 7200 8400 7250
Wire Wire Line
	8500 7200 8500 7250
Wire Wire Line
	8500 7300 8550 7300
Wire Wire Line
	8600 7200 8600 7250
Wire Wire Line
	8600 7250 8700 7250
Wire Wire Line
	8700 7200 8700 7250
Connection ~ 8550 7300
Wire Wire Line
	8550 7300 8600 7300
Connection ~ 8600 7250
Wire Wire Line
	8600 7250 8600 7300
Connection ~ 8500 7250
Wire Wire Line
	8500 7250 8500 7300
Wire Wire Line
	2400 9500 2050 9500
Wire Wire Line
	2400 9600 1500 9600
Wire Wire Line
	1500 9600 1500 9250
$Comp
L power:+3V3 #PWR0107
U 1 1 61388D2A
P 1500 9050
F 0 "#PWR0107" H 1500 8900 50  0001 C CNN
F 1 "+3V3" H 1515 9223 50  0000 C CNN
F 2 "" H 1500 9050 50  0001 C CNN
F 3 "" H 1500 9050 50  0001 C CNN
	1    1500 9050
	1    0    0    -1  
$EndComp
Wire Wire Line
	2400 9800 1400 9800
$Comp
L power:Earth #PWR0108
U 1 1 61389BEF
P 1400 10150
F 0 "#PWR0108" H 1400 9900 50  0001 C CNN
F 1 "Earth" H 1400 10000 50  0001 C CNN
F 2 "" H 1400 10150 50  0001 C CNN
F 3 "~" H 1400 10150 50  0001 C CNN
	1    1400 10150
	1    0    0    -1  
$EndComp
Wire Wire Line
	2050 9500 2050 9200
Connection ~ 2050 9500
$Comp
L Device:R R3
U 1 1 6138A9B5
P 2050 9050
F 0 "R3" H 2120 9096 50  0000 L CNN
F 1 "10K" H 2120 9005 50  0000 L CNN
F 2 "Resistor_SMD:R_0603_1608Metric_Pad0.98x0.95mm_HandSolder" V 1980 9050 50  0001 C CNN
F 3 "~" H 2050 9050 50  0001 C CNN
	1    2050 9050
	1    0    0    -1  
$EndComp
$Comp
L power:+3V3 #PWR0109
U 1 1 6138B12A
P 2050 8550
F 0 "#PWR0109" H 2050 8400 50  0001 C CNN
F 1 "+3V3" H 2065 8723 50  0000 C CNN
F 2 "" H 2050 8550 50  0001 C CNN
F 3 "" H 2050 8550 50  0001 C CNN
	1    2050 8550
	1    0    0    -1  
$EndComp
Wire Wire Line
	2050 8900 2050 8550
NoConn ~ 2400 10000
NoConn ~ 2400 9300
Wire Wire Line
	1500 9250 1150 9250
Wire Wire Line
	1150 9250 1150 9300
Connection ~ 1500 9250
Wire Wire Line
	1500 9250 1500 9050
$Comp
L Device:C C4
U 1 1 6138FDFD
P 1150 9450
F 0 "C4" H 1265 9496 50  0000 L CNN
F 1 "0.1uF" H 1265 9405 50  0000 L CNN
F 2 "Capacitor_SMD:C_0603_1608Metric_Pad1.08x0.95mm_HandSolder" H 1188 9300 50  0001 C CNN
F 3 "~" H 1150 9450 50  0001 C CNN
	1    1150 9450
	1    0    0    -1  
$EndComp
Wire Wire Line
	1150 9600 1150 9800
Wire Wire Line
	1150 9800 1400 9800
Connection ~ 1400 9800
Wire Wire Line
	1400 9800 1400 10150
$Comp
L Connector:RJ45 J2
U 1 1 61399C01
P 3950 2250
F 0 "J2" H 4007 2917 50  0000 C CNN
F 1 "RJ45" H 4007 2826 50  0000 C CNN
F 2 "Connector_RJ:RJ45_Amphenol_54602-x08_Horizontal" V 3950 2275 50  0001 C CNN
F 3 "~" V 3950 2275 50  0001 C CNN
	1    3950 2250
	-1   0    0    1   
$EndComp
NoConn ~ 3550 2150
NoConn ~ 3550 2250
NoConn ~ 3550 2350
NoConn ~ 3550 2450
NoConn ~ 3550 2550
NoConn ~ 3550 2650
Wire Wire Line
	2350 2650 2350 3400
$Comp
L power:Earth #PWR0110
U 1 1 613BE12E
P 2350 3400
F 0 "#PWR0110" H 2350 3150 50  0001 C CNN
F 1 "Earth" H 2350 3250 50  0001 C CNN
F 2 "" H 2350 3400 50  0001 C CNN
F 3 "~" H 2350 3400 50  0001 C CNN
	1    2350 3400
	1    0    0    -1  
$EndComp
NoConn ~ 1750 2200
NoConn ~ 1750 2400
$Comp
L Device:R R6
U 1 1 613C9A8C
P 3250 1950
F 0 "R6" V 3043 1950 50  0000 C CNN
F 1 "220R" V 3134 1950 50  0000 C CNN
F 2 "Resistor_SMD:R_0805_2012Metric_Pad1.15x1.40mm_HandSolder" V 3180 1950 50  0001 C CNN
F 3 "~" H 3250 1950 50  0001 C CNN
	1    3250 1950
	0    1    1    0   
$EndComp
$Comp
L Device:R R7
U 1 1 613CA4CC
P 3250 2050
F 0 "R7" V 3450 2050 50  0000 C CNN
F 1 "220R" V 3350 2050 50  0000 C CNN
F 2 "Resistor_SMD:R_0805_2012Metric_Pad1.15x1.40mm_HandSolder" V 3180 2050 50  0001 C CNN
F 3 "~" H 3250 2050 50  0001 C CNN
	1    3250 2050
	0    1    1    0   
$EndComp
Wire Wire Line
	2250 1550 1950 1550
$Comp
L power:+3V3 #PWR0111
U 1 1 613D2C58
P 1950 1000
F 0 "#PWR0111" H 1950 850 50  0001 C CNN
F 1 "+3V3" H 1965 1173 50  0000 C CNN
F 2 "" H 1950 1000 50  0001 C CNN
F 3 "" H 1950 1000 50  0001 C CNN
	1    1950 1000
	1    0    0    -1  
$EndComp
Wire Wire Line
	2450 1550 2450 950 
Wire Wire Line
	2450 950  2950 950 
Wire Wire Line
	2950 950  2950 1100
$Comp
L Device:R R5
U 1 1 613D4B9E
P 2950 1250
F 0 "R5" H 3020 1296 50  0000 L CNN
F 1 "100K" H 3020 1205 50  0000 L CNN
F 2 "Resistor_SMD:R_0603_1608Metric_Pad0.98x0.95mm_HandSolder" V 2880 1250 50  0001 C CNN
F 3 "~" H 2950 1250 50  0001 C CNN
	1    2950 1250
	1    0    0    -1  
$EndComp
Wire Wire Line
	2950 1400 2950 1500
$Comp
L power:Earth #PWR0112
U 1 1 613D6EBD
P 2950 1500
F 0 "#PWR0112" H 2950 1250 50  0001 C CNN
F 1 "Earth" H 2950 1350 50  0001 C CNN
F 2 "" H 2950 1500 50  0001 C CNN
F 3 "~" H 2950 1500 50  0001 C CNN
	1    2950 1500
	1    0    0    -1  
$EndComp
Wire Wire Line
	2950 950  3300 950 
Wire Wire Line
	3300 950  3300 1100
Connection ~ 2950 950 
$Comp
L Device:C C7
U 1 1 613D8FD8
P 3300 1250
F 0 "C7" H 3415 1296 50  0000 L CNN
F 1 "100nF" H 3415 1205 50  0000 L CNN
F 2 "Capacitor_SMD:C_0603_1608Metric_Pad1.08x0.95mm_HandSolder" H 3338 1100 50  0001 C CNN
F 3 "~" H 3300 1250 50  0001 C CNN
	1    3300 1250
	1    0    0    -1  
$EndComp
$Comp
L power:Earth #PWR0113
U 1 1 613D9AC5
P 3300 1500
F 0 "#PWR0113" H 3300 1250 50  0001 C CNN
F 1 "Earth" H 3300 1350 50  0001 C CNN
F 2 "" H 3300 1500 50  0001 C CNN
F 3 "~" H 3300 1500 50  0001 C CNN
	1    3300 1500
	1    0    0    -1  
$EndComp
Wire Wire Line
	3300 1400 3300 1500
Wire Wire Line
	2150 2650 2150 2800
$Comp
L Device:R R2
U 1 1 613DDD97
P 1500 3000
F 0 "R2" H 1570 3046 50  0000 L CNN
F 1 "470R" H 1570 2955 50  0000 L CNN
F 2 "Resistor_SMD:R_0603_1608Metric_Pad0.98x0.95mm_HandSolder" V 1430 3000 50  0001 C CNN
F 3 "~" H 1500 3000 50  0001 C CNN
	1    1500 3000
	1    0    0    -1  
$EndComp
$Comp
L Device:R R4
U 1 1 613DE4FB
P 2900 3000
F 0 "R4" H 2970 3046 50  0000 L CNN
F 1 "220K" H 2970 2955 50  0000 L CNN
F 2 "Resistor_SMD:R_0603_1608Metric_Pad0.98x0.95mm_HandSolder" V 2830 3000 50  0001 C CNN
F 3 "~" H 2900 3000 50  0001 C CNN
	1    2900 3000
	1    0    0    -1  
$EndComp
Wire Wire Line
	2550 2650 2550 2800
Wire Wire Line
	2550 2800 2900 2800
Wire Wire Line
	2900 2800 2900 2850
$Comp
L Device:C C6
U 1 1 613E58CB
P 2550 3150
F 0 "C6" H 2665 3196 50  0000 L CNN
F 1 "100nF" H 2665 3105 50  0000 L CNN
F 2 "Capacitor_SMD:C_0603_1608Metric_Pad1.08x0.95mm_HandSolder" H 2588 3000 50  0001 C CNN
F 3 "~" H 2550 3150 50  0001 C CNN
	1    2550 3150
	1    0    0    -1  
$EndComp
$Comp
L Device:C_Polarized C5
U 1 1 613E63B7
P 2000 3100
F 0 "C5" H 2118 3146 50  0000 L CNN
F 1 "10uF" H 2118 3055 50  0000 L CNN
F 2 "Capacitor_SMD:C_0603_1608Metric_Pad1.08x0.95mm_HandSolder" H 2038 2950 50  0001 C CNN
F 3 "~" H 2000 3100 50  0001 C CNN
	1    2000 3100
	1    0    0    -1  
$EndComp
Wire Wire Line
	2250 2650 2250 2950
Wire Wire Line
	2250 2950 2000 2950
Wire Wire Line
	2550 2950 2450 2950
Wire Wire Line
	2450 2950 2450 2650
Wire Wire Line
	2550 2950 2550 3000
$Comp
L power:+3V3 #PWR0114
U 1 1 6140B6EE
P 14700 6550
F 0 "#PWR0114" H 14700 6400 50  0001 C CNN
F 1 "+3V3" H 14715 6723 50  0000 C CNN
F 2 "" H 14700 6550 50  0001 C CNN
F 3 "" H 14700 6550 50  0001 C CNN
	1    14700 6550
	1    0    0    -1  
$EndComp
Wire Wire Line
	14900 6800 14850 6800
Wire Wire Line
	14700 6800 14700 6550
Wire Wire Line
	14900 6900 14850 6900
Wire Wire Line
	14700 6900 14700 7100
$Comp
L power:Earth #PWR0115
U 1 1 6141093D
P 14700 7100
F 0 "#PWR0115" H 14700 6850 50  0001 C CNN
F 1 "Earth" H 14700 6950 50  0001 C CNN
F 2 "" H 14700 7100 50  0001 C CNN
F 3 "~" H 14700 7100 50  0001 C CNN
	1    14700 7100
	1    0    0    -1  
$EndComp
Wire Wire Line
	2900 3150 2900 3400
Wire Wire Line
	2550 3300 2550 3400
Wire Wire Line
	2000 3250 2000 3400
Wire Wire Line
	1500 3150 1500 3350
$Comp
L power:Earth #PWR0116
U 1 1 6142AF6F
P 1500 3350
F 0 "#PWR0116" H 1500 3100 50  0001 C CNN
F 1 "Earth" H 1500 3200 50  0001 C CNN
F 2 "" H 1500 3350 50  0001 C CNN
F 3 "~" H 1500 3350 50  0001 C CNN
	1    1500 3350
	1    0    0    -1  
$EndComp
$Comp
L power:Earth #PWR0117
U 1 1 6142B3A8
P 2000 3400
F 0 "#PWR0117" H 2000 3150 50  0001 C CNN
F 1 "Earth" H 2000 3250 50  0001 C CNN
F 2 "" H 2000 3400 50  0001 C CNN
F 3 "~" H 2000 3400 50  0001 C CNN
	1    2000 3400
	1    0    0    -1  
$EndComp
$Comp
L power:Earth #PWR0118
U 1 1 6142B7F3
P 2550 3400
F 0 "#PWR0118" H 2550 3150 50  0001 C CNN
F 1 "Earth" H 2550 3250 50  0001 C CNN
F 2 "" H 2550 3400 50  0001 C CNN
F 3 "~" H 2550 3400 50  0001 C CNN
	1    2550 3400
	1    0    0    -1  
$EndComp
$Comp
L power:Earth #PWR0119
U 1 1 6142BC50
P 2900 3400
F 0 "#PWR0119" H 2900 3150 50  0001 C CNN
F 1 "Earth" H 2900 3250 50  0001 C CNN
F 2 "" H 2900 3400 50  0001 C CNN
F 3 "~" H 2900 3400 50  0001 C CNN
	1    2900 3400
	1    0    0    -1  
$EndComp
$Comp
L Device:C C9
U 1 1 6142C8CD
P 12900 1150
F 0 "C9" H 13015 1196 50  0000 L CNN
F 1 "1uF" H 13015 1105 50  0000 L CNN
F 2 "Capacitor_SMD:C_0603_1608Metric_Pad1.08x0.95mm_HandSolder" H 12938 1000 50  0001 C CNN
F 3 "~" H 12900 1150 50  0001 C CNN
F 4 "Ceramic" H 13000 1000 50  0000 L CNN "Type"
	1    12900 1150
	1    0    0    -1  
$EndComp
Wire Wire Line
	14700 1500 14950 1500
Wire Wire Line
	14950 1500 14950 1400
Connection ~ 14700 1500
$Comp
L power:+3V3 #PWR0120
U 1 1 614398F5
P 14950 1400
F 0 "#PWR0120" H 14950 1250 50  0001 C CNN
F 1 "+3V3" H 14965 1573 50  0000 C CNN
F 2 "" H 14950 1400 50  0001 C CNN
F 3 "" H 14950 1400 50  0001 C CNN
	1    14950 1400
	1    0    0    -1  
$EndComp
Wire Wire Line
	14700 1800 14700 1900
$Comp
L power:Earth #PWR0121
U 1 1 6143D07B
P 14700 1900
F 0 "#PWR0121" H 14700 1650 50  0001 C CNN
F 1 "Earth" H 14700 1750 50  0001 C CNN
F 2 "" H 14700 1900 50  0001 C CNN
F 3 "~" H 14700 1900 50  0001 C CNN
	1    14700 1900
	1    0    0    -1  
$EndComp
$Comp
L power:Earth #PWR0122
U 1 1 6143D548
P 14100 2050
F 0 "#PWR0122" H 14100 1800 50  0001 C CNN
F 1 "Earth" H 14100 1900 50  0001 C CNN
F 2 "" H 14100 2050 50  0001 C CNN
F 3 "~" H 14100 2050 50  0001 C CNN
	1    14100 2050
	1    0    0    -1  
$EndComp
Wire Wire Line
	12900 900  12900 750 
Wire Wire Line
	12900 900  12900 1000
Connection ~ 12900 900 
Wire Wire Line
	12900 1300 12900 1400
$Comp
L power:+BATT #PWR0123
U 1 1 6144C218
P 12900 750
F 0 "#PWR0123" H 12900 600 50  0001 C CNN
F 1 "+BATT" H 12915 923 50  0000 C CNN
F 2 "" H 12900 750 50  0001 C CNN
F 3 "" H 12900 750 50  0001 C CNN
	1    12900 750 
	1    0    0    -1  
$EndComp
Wire Wire Line
	3400 1950 3550 1950
Wire Wire Line
	3400 2050 3550 2050
Wire Wire Line
	2900 2050 3100 2050
Wire Wire Line
	2900 1950 3100 1950
Text Notes 3400 1750 0    50   ~ 0
*See note 1
Text Notes 11850 10550 0    50   ~ 0
Note 1: Should be able to handle 24V so should be high power resistor\nNote 2: You should not connect a USB supply that cannot supply 500mA!
Text Label 1150 1950 0    50   ~ 0
POWER_FAIL
Wire Wire Line
	1150 1950 1750 1950
Wire Wire Line
	10050 5100 10700 5100
Text Label 10700 5100 2    50   ~ 0
ESP_RST
Text Label 9700 5250 2    50   ~ 0
UART_TX
Wire Wire Line
	9150 5250 9700 5250
Text Label 9700 5350 2    50   ~ 0
UART_RX
Wire Wire Line
	9150 5350 9700 5350
Wire Wire Line
	14200 6100 14850 6100
Text Label 14200 6100 0    50   ~ 0
UART_RX
Text Label 14200 6200 0    50   ~ 0
UART_TX
Wire Wire Line
	14200 6200 14850 6200
Wire Wire Line
	1650 9400 2400 9400
Text Label 1650 9400 0    50   ~ 0
SD_CS
Text Label 1650 9500 0    50   ~ 0
MOSI
Wire Wire Line
	1650 9500 2050 9500
Text Label 1650 9700 0    50   ~ 0
SCK
Wire Wire Line
	1650 9700 2400 9700
Text Label 1650 9900 0    50   ~ 0
MISO
Wire Wire Line
	1650 9900 2400 9900
Wire Wire Line
	1150 2100 1750 2100
Text Label 1150 2100 0    50   ~ 0
AMS_TX
Text Label 1150 2300 0    50   ~ 0
AMS_RX
Wire Wire Line
	1150 2300 1750 2300
Text Label 7450 5100 0    50   ~ 0
BOOT_OPT
Wire Wire Line
	7450 5100 7950 5100
Wire Wire Line
	15350 5250 15500 5250
Wire Wire Line
	15500 5250 15500 5350
$Comp
L power:Earth #PWR0125
U 1 1 6151312F
P 15500 5350
F 0 "#PWR0125" H 15500 5100 50  0001 C CNN
F 1 "Earth" H 15500 5200 50  0001 C CNN
F 2 "" H 15500 5350 50  0001 C CNN
F 3 "~" H 15500 5350 50  0001 C CNN
	1    15500 5350
	1    0    0    -1  
$EndComp
Text Label 14350 5250 0    50   ~ 0
BOOT_OPT
Wire Wire Line
	14350 5250 14750 5250
Wire Wire Line
	8550 3950 8550 4150
$Comp
L Battery_Management:MAX1811 U3
U 1 1 61524231
P 10200 1400
F 0 "U3" H 10250 1867 50  0000 C CNN
F 1 "MAX1811" H 10250 1776 50  0000 C CNN
F 2 "Package_SO:SOIC-8_3.9x4.9mm_P1.27mm" H 10450 1050 50  0001 L CNN
F 3 "https://datasheets.maximintegrated.com/en/ds/MAX1811.pdf" H 10200 700 50  0001 C CNN
	1    10200 1400
	1    0    0    -1  
$EndComp
NoConn ~ 1750 1850
NoConn ~ 2900 2250
Wire Wire Line
	7450 6600 7950 6600
Text Label 7450 6600 0    50   ~ 0
AMS_TX
Text Label 7450 6400 0    50   ~ 0
AMS_RX
Wire Wire Line
	7450 6400 7950 6400
Text Label 7450 6500 0    50   ~ 0
POWER_FAIL
Wire Wire Line
	7450 6500 7950 6500
Text Label 9700 6600 2    50   ~ 0
SD_REG
Text Label 9700 6500 2    50   ~ 0
AMS_RCV
Text Label 9700 6800 2    50   ~ 0
WIFI_TX
Text Label 9700 6700 2    50   ~ 0
LED_4
Wire Wire Line
	9700 6700 9150 6700
Wire Wire Line
	9700 6800 9150 6800
Wire Wire Line
	9700 6500 9150 6500
Wire Wire Line
	9700 6600 9150 6600
Text Label 7400 7000 0    50   ~ 0
SD_CS
Text Label 7400 6900 0    50   ~ 0
MOSI
Text Label 7400 6700 0    50   ~ 0
MISO
Text Label 7400 6800 0    50   ~ 0
SCK
Wire Wire Line
	7400 6700 7950 6700
Wire Wire Line
	7400 6800 7950 6800
Wire Wire Line
	7400 6900 7950 6900
Wire Wire Line
	7400 7000 7950 7000
$Comp
L Device:R R10
U 1 1 61624165
P 9300 1800
F 0 "R10" H 9370 1846 50  0000 L CNN
F 1 "10k" H 9370 1755 50  0000 L CNN
F 2 "Resistor_SMD:R_0603_1608Metric_Pad0.98x0.95mm_HandSolder" V 9230 1800 50  0001 C CNN
F 3 "~" H 9300 1800 50  0001 C CNN
	1    9300 1800
	1    0    0    -1  
$EndComp
Wire Wire Line
	9800 1600 9600 1600
Wire Wire Line
	9300 1600 9300 1650
Wire Wire Line
	10700 1200 11650 1200
Wire Wire Line
	11650 1200 11650 1100
$Comp
L power:+BATT #PWR0133
U 1 1 6163BC43
P 11650 1100
F 0 "#PWR0133" H 11650 950 50  0001 C CNN
F 1 "+BATT" H 11665 1273 50  0000 C CNN
F 2 "" H 11650 1100 50  0001 C CNN
F 3 "" H 11650 1100 50  0001 C CNN
	1    11650 1100
	1    0    0    -1  
$EndComp
$Comp
L Device:C C8
U 1 1 6163CA2D
P 11650 1400
F 0 "C8" H 11765 1446 50  0000 L CNN
F 1 "C" H 11765 1355 50  0000 L CNN
F 2 "Capacitor_SMD:C_0603_1608Metric_Pad1.08x0.95mm_HandSolder" H 11688 1250 50  0001 C CNN
F 3 "~" H 11650 1400 50  0001 C CNN
	1    11650 1400
	1    0    0    -1  
$EndComp
Wire Wire Line
	11650 1200 11650 1250
Connection ~ 11650 1200
$Comp
L power:Earth #PWR0134
U 1 1 61643227
P 11650 1650
F 0 "#PWR0134" H 11650 1400 50  0001 C CNN
F 1 "Earth" H 11650 1500 50  0001 C CNN
F 2 "" H 11650 1650 50  0001 C CNN
F 3 "~" H 11650 1650 50  0001 C CNN
	1    11650 1650
	1    0    0    -1  
$EndComp
Wire Wire Line
	11650 1550 11650 1650
Wire Wire Line
	10700 1400 10850 1400
Wire Wire Line
	10850 1400 10850 2200
$Comp
L Device:LED D6
U 1 1 616576D3
P 11100 2000
F 0 "D6" V 11139 1882 50  0000 R CNN
F 1 "CHG_LED" V 11048 1882 50  0000 R CNN
F 2 "LED_SMD:LED_0805_2012Metric_Pad1.15x1.40mm_HandSolder" H 11100 2000 50  0001 C CNN
F 3 "~" H 11100 2000 50  0001 C CNN
	1    11100 2000
	0    -1   -1   0   
$EndComp
$Comp
L Device:R R14
U 1 1 6165E3A0
P 11100 1650
F 0 "R14" H 11170 1696 50  0000 L CNN
F 1 "316R" H 11170 1605 50  0000 L CNN
F 2 "Resistor_SMD:R_0603_1608Metric_Pad0.98x0.95mm_HandSolder" V 11030 1650 50  0001 C CNN
F 3 "~" H 11100 1650 50  0001 C CNN
	1    11100 1650
	1    0    0    -1  
$EndComp
Wire Wire Line
	11100 1800 11100 1850
$Comp
L power:VBUS #PWR0135
U 1 1 61678A63
P 11100 1450
F 0 "#PWR0135" H 11100 1300 50  0001 C CNN
F 1 "VBUS" H 11115 1623 50  0000 C CNN
F 2 "" H 11100 1450 50  0001 C CNN
F 3 "" H 11100 1450 50  0001 C CNN
	1    11100 1450
	1    0    0    -1  
$EndComp
Wire Wire Line
	11100 1450 11100 1500
Wire Wire Line
	10850 2200 11100 2200
Wire Wire Line
	11100 2200 11100 2150
Wire Wire Line
	10200 1850 10200 1800
Wire Wire Line
	10300 1800 10300 1850
Wire Wire Line
	10300 1850 10250 1850
Wire Wire Line
	10250 1850 10250 1900
Connection ~ 10250 1850
Wire Wire Line
	10250 1850 10200 1850
$Comp
L power:Earth #PWR0136
U 1 1 616CAD5E
P 10250 1900
F 0 "#PWR0136" H 10250 1650 50  0001 C CNN
F 1 "Earth" H 10250 1750 50  0001 C CNN
F 2 "" H 10250 1900 50  0001 C CNN
F 3 "~" H 10250 1900 50  0001 C CNN
	1    10250 1900
	1    0    0    -1  
$EndComp
$Comp
L Connector:USB_B_Micro J3
U 1 1 616CBF2B
P 8100 1400
F 0 "J3" H 8157 1867 50  0000 C CNN
F 1 "USB_B_Micro" H 8157 1776 50  0000 C CNN
F 2 "Connector_USB:USB_Micro-B_Molex-105017-0001" H 8250 1350 50  0001 C CNN
F 3 "~" H 8250 1350 50  0001 C CNN
	1    8100 1400
	1    0    0    -1  
$EndComp
Wire Wire Line
	8000 1800 8000 1850
Wire Wire Line
	8000 1850 8050 1850
Wire Wire Line
	8100 1850 8100 1800
Wire Wire Line
	8050 1850 8050 1900
Connection ~ 8050 1850
Wire Wire Line
	8050 1850 8100 1850
$Comp
L power:Earth #PWR0137
U 1 1 616EA241
P 8050 1900
F 0 "#PWR0137" H 8050 1650 50  0001 C CNN
F 1 "Earth" H 8050 1750 50  0001 C CNN
F 2 "" H 8050 1900 50  0001 C CNN
F 3 "~" H 8050 1900 50  0001 C CNN
	1    8050 1900
	1    0    0    -1  
$EndComp
Wire Wire Line
	8400 1400 8500 1400
Wire Wire Line
	8500 1500 8400 1500
NoConn ~ 8400 1600
$Comp
L Connector_Generic:Conn_01x02 BATT1
U 1 1 616FA406
P 15050 4550
F 0 "BATT1" H 15130 4542 50  0000 L CNN
F 1 "JST-XHP-2" H 15130 4451 50  0000 L CNN
F 2 "Connector_PinHeader_1.27mm:PinHeader_1x02_P1.27mm_Vertical" H 15050 4550 50  0001 C CNN
F 3 "~" H 15050 4550 50  0001 C CNN
	1    15050 4550
	1    0    0    -1  
$EndComp
Wire Wire Line
	14850 4550 14650 4550
Wire Wire Line
	14650 4550 14650 4400
$Comp
L power:+BATT #PWR0132
U 1 1 6170E7DC
P 14650 4400
F 0 "#PWR0132" H 14650 4250 50  0001 C CNN
F 1 "+BATT" H 14665 4573 50  0000 C CNN
F 2 "" H 14650 4400 50  0001 C CNN
F 3 "" H 14650 4400 50  0001 C CNN
	1    14650 4400
	1    0    0    -1  
$EndComp
Wire Wire Line
	14850 4650 14650 4650
Wire Wire Line
	14650 4650 14650 4800
$Comp
L power:Earth #PWR0138
U 1 1 61716B1A
P 14650 4800
F 0 "#PWR0138" H 14650 4550 50  0001 C CNN
F 1 "Earth" H 14650 4650 50  0001 C CNN
F 2 "" H 14650 4800 50  0001 C CNN
F 3 "~" H 14650 4800 50  0001 C CNN
	1    14650 4800
	1    0    0    -1  
$EndComp
$Comp
L Device:R R16
U 1 1 6174B357
P 8600 1450
F 0 "R16" H 8670 1496 50  0000 L CNN
F 1 "0R" H 8670 1405 50  0000 L CNN
F 2 "Resistor_SMD:R_0603_1608Metric_Pad0.98x0.95mm_HandSolder" V 8530 1450 50  0001 C CNN
F 3 "~" H 8600 1450 50  0001 C CNN
	1    8600 1450
	1    0    0    -1  
$EndComp
Wire Wire Line
	8500 1400 8500 1300
Wire Wire Line
	8500 1300 8600 1300
Wire Wire Line
	8500 1500 8500 1600
Wire Wire Line
	8500 1600 8600 1600
$Comp
L power:+3V3 #PWR0139
U 1 1 6177727C
P 9300 1600
F 0 "#PWR0139" H 9300 1450 50  0001 C CNN
F 1 "+3V3" H 9315 1773 50  0000 C CNN
F 2 "" H 9300 1600 50  0001 C CNN
F 3 "" H 9300 1600 50  0001 C CNN
	1    9300 1600
	1    0    0    -1  
$EndComp
Text Notes 9250 2100 0    50   ~ 0
*See note 2
Wire Wire Line
	9800 1500 9650 1500
Wire Wire Line
	9650 1500 9650 1300
Connection ~ 9650 1200
Wire Wire Line
	9650 1200 9800 1200
Wire Wire Line
	9800 1300 9650 1300
Connection ~ 9650 1300
Wire Wire Line
	9650 1300 9650 1200
Wire Wire Line
	9300 1950 9600 1950
Wire Wire Line
	9600 1600 9600 1950
$Comp
L power:+BATT #PWR0140
U 1 1 617CA821
P 6600 5650
F 0 "#PWR0140" H 6600 5500 50  0001 C CNN
F 1 "+BATT" H 6615 5823 50  0000 C CNN
F 2 "" H 6600 5650 50  0001 C CNN
F 3 "" H 6600 5650 50  0001 C CNN
	1    6600 5650
	-1   0    0    -1  
$EndComp
$Comp
L Device:R R17
U 1 1 617CB05B
P 6600 5900
F 0 "R17" H 6670 5946 50  0000 L CNN
F 1 "4.3M" H 6670 5855 50  0000 L CNN
F 2 "Resistor_SMD:R_0603_1608Metric_Pad0.98x0.95mm_HandSolder" V 6530 5900 50  0001 C CNN
F 3 "~" H 6600 5900 50  0001 C CNN
	1    6600 5900
	1    0    0    -1  
$EndComp
$Comp
L Device:R R18
U 1 1 617CBA63
P 6600 6350
F 0 "R18" H 6670 6396 50  0000 L CNN
F 1 "10M" H 6670 6305 50  0000 L CNN
F 2 "Resistor_SMD:R_0603_1608Metric_Pad0.98x0.95mm_HandSolder" V 6530 6350 50  0001 C CNN
F 3 "~" H 6600 6350 50  0001 C CNN
	1    6600 6350
	1    0    0    -1  
$EndComp
Wire Wire Line
	6600 5650 6600 5750
Wire Wire Line
	6600 6050 6600 6100
Wire Wire Line
	6600 6500 6600 6550
$Comp
L power:Earth #PWR0141
U 1 1 617E6500
P 6600 6650
F 0 "#PWR0141" H 6600 6400 50  0001 C CNN
F 1 "Earth" H 6600 6500 50  0001 C CNN
F 2 "" H 6600 6650 50  0001 C CNN
F 3 "~" H 6600 6650 50  0001 C CNN
	1    6600 6650
	-1   0    0    -1  
$EndComp
Wire Wire Line
	6600 6100 7000 6100
Connection ~ 6600 6100
Wire Wire Line
	6600 6100 6600 6200
Text Label 7450 6100 0    50   ~ 0
V_BAT
$Comp
L Device:C C11
U 1 1 617F1C31
P 7000 6350
F 0 "C11" H 7115 6396 50  0000 L CNN
F 1 "0.1uF" H 7115 6305 50  0000 L CNN
F 2 "Capacitor_SMD:C_0603_1608Metric_Pad1.08x0.95mm_HandSolder" H 7038 6200 50  0001 C CNN
F 3 "~" H 7000 6350 50  0001 C CNN
	1    7000 6350
	1    0    0    -1  
$EndComp
Wire Wire Line
	7000 6100 7000 6200
Wire Wire Line
	7000 6500 7000 6550
Wire Wire Line
	7000 6550 6600 6550
Connection ~ 6600 6550
Wire Wire Line
	6600 6550 6600 6650
Wire Wire Line
	7000 6100 7950 6100
$Comp
L Connector:Micro_SD_Card J1
U 1 1 61378F8B
P 3300 9600
F 0 "J1" H 3250 10317 50  0000 C CNN
F 1 "Micro_SD_Card" H 3250 10226 50  0000 C CNN
F 2 "Connector_Card:microSD_HC_Wuerth_693072010801" H 4450 9900 50  0001 C CNN
F 3 "http://katalog.we-online.de/em/datasheet/693072010801.pdf" H 3300 9600 50  0001 C CNN
	1    3300 9600
	1    0    0    -1  
$EndComp
$Comp
L power:Earth #PWR0106
U 1 1 61378C58
P 4400 10350
F 0 "#PWR0106" H 4400 10100 50  0001 C CNN
F 1 "Earth" H 4400 10200 50  0001 C CNN
F 2 "" H 4400 10350 50  0001 C CNN
F 3 "~" H 4400 10350 50  0001 C CNN
	1    4400 10350
	1    0    0    -1  
$EndComp
Wire Wire Line
	4400 10200 4400 10350
Wire Wire Line
	4100 10200 4400 10200
$Comp
L Device:LED D1
U 1 1 6152939C
P 9400 10100
F 0 "D1" V 9439 9982 50  0000 R CNN
F 1 "LED" V 9348 9982 50  0000 R CNN
F 2 "LED_SMD:LED_0805_2012Metric_Pad1.15x1.40mm_HandSolder" H 9400 10100 50  0001 C CNN
F 3 "~" H 9400 10100 50  0001 C CNN
	1    9400 10100
	0    -1   -1   0   
$EndComp
$Comp
L Device:LED D2
U 1 1 61529B0B
P 9800 10100
F 0 "D2" V 9839 9982 50  0000 R CNN
F 1 "LED" V 9748 9982 50  0000 R CNN
F 2 "LED_SMD:LED_0805_2012Metric_Pad1.15x1.40mm_HandSolder" H 9800 10100 50  0001 C CNN
F 3 "~" H 9800 10100 50  0001 C CNN
	1    9800 10100
	0    -1   -1   0   
$EndComp
$Comp
L Device:LED D3
U 1 1 6152A255
P 10200 10100
F 0 "D3" V 10239 9982 50  0000 R CNN
F 1 "LED" V 10148 9982 50  0000 R CNN
F 2 "LED_SMD:LED_0805_2012Metric_Pad1.15x1.40mm_HandSolder" H 10200 10100 50  0001 C CNN
F 3 "~" H 10200 10100 50  0001 C CNN
	1    10200 10100
	0    -1   -1   0   
$EndComp
$Comp
L Device:LED D4
U 1 1 6152AA2E
P 10600 10100
F 0 "D4" V 10639 9982 50  0000 R CNN
F 1 "LED" V 10548 9982 50  0000 R CNN
F 2 "LED_SMD:LED_0805_2012Metric_Pad1.15x1.40mm_HandSolder" H 10600 10100 50  0001 C CNN
F 3 "~" H 10600 10100 50  0001 C CNN
	1    10600 10100
	0    -1   -1   0   
$EndComp
$Comp
L Device:LED D5
U 1 1 6152AE47
P 11000 10100
F 0 "D5" V 11039 9982 50  0000 R CNN
F 1 "LED" V 10948 9982 50  0000 R CNN
F 2 "LED_SMD:LED_0805_2012Metric_Pad1.15x1.40mm_HandSolder" H 11000 10100 50  0001 C CNN
F 3 "~" H 11000 10100 50  0001 C CNN
	1    11000 10100
	0    -1   -1   0   
$EndComp
$Comp
L Device:R R8
U 1 1 61534E44
P 9400 10450
F 0 "R8" H 9470 10496 50  0000 L CNN
F 1 "200R" H 9470 10405 50  0000 L CNN
F 2 "Resistor_SMD:R_0603_1608Metric_Pad0.98x0.95mm_HandSolder" V 9330 10450 50  0001 C CNN
F 3 "~" H 9400 10450 50  0001 C CNN
	1    9400 10450
	1    0    0    -1  
$EndComp
$Comp
L Device:R R9
U 1 1 61535608
P 9800 10450
F 0 "R9" H 9870 10496 50  0000 L CNN
F 1 "200R" H 9870 10405 50  0000 L CNN
F 2 "Resistor_SMD:R_0603_1608Metric_Pad0.98x0.95mm_HandSolder" V 9730 10450 50  0001 C CNN
F 3 "~" H 9800 10450 50  0001 C CNN
	1    9800 10450
	1    0    0    -1  
$EndComp
$Comp
L Device:R R11
U 1 1 61535BD8
P 10200 10450
F 0 "R11" H 10270 10496 50  0000 L CNN
F 1 "200R" H 10270 10405 50  0000 L CNN
F 2 "Resistor_SMD:R_0603_1608Metric_Pad0.98x0.95mm_HandSolder" V 10130 10450 50  0001 C CNN
F 3 "~" H 10200 10450 50  0001 C CNN
	1    10200 10450
	1    0    0    -1  
$EndComp
$Comp
L Device:R R12
U 1 1 61536740
P 10600 10450
F 0 "R12" H 10670 10496 50  0000 L CNN
F 1 "200R" H 10670 10405 50  0000 L CNN
F 2 "Resistor_SMD:R_0603_1608Metric_Pad0.98x0.95mm_HandSolder" V 10530 10450 50  0001 C CNN
F 3 "~" H 10600 10450 50  0001 C CNN
	1    10600 10450
	1    0    0    -1  
$EndComp
$Comp
L Device:R R13
U 1 1 61536D30
P 11000 10450
F 0 "R13" H 11070 10496 50  0000 L CNN
F 1 "200R" H 11070 10405 50  0000 L CNN
F 2 "Resistor_SMD:R_0603_1608Metric_Pad0.98x0.95mm_HandSolder" V 10930 10450 50  0001 C CNN
F 3 "~" H 11000 10450 50  0001 C CNN
	1    11000 10450
	1    0    0    -1  
$EndComp
$Comp
L power:Earth #PWR0126
U 1 1 61537FE7
P 9400 10650
F 0 "#PWR0126" H 9400 10400 50  0001 C CNN
F 1 "Earth" H 9400 10500 50  0001 C CNN
F 2 "" H 9400 10650 50  0001 C CNN
F 3 "~" H 9400 10650 50  0001 C CNN
	1    9400 10650
	1    0    0    -1  
$EndComp
$Comp
L power:Earth #PWR0127
U 1 1 61538070
P 9800 10650
F 0 "#PWR0127" H 9800 10400 50  0001 C CNN
F 1 "Earth" H 9800 10500 50  0001 C CNN
F 2 "" H 9800 10650 50  0001 C CNN
F 3 "~" H 9800 10650 50  0001 C CNN
	1    9800 10650
	1    0    0    -1  
$EndComp
$Comp
L power:Earth #PWR0128
U 1 1 6153871B
P 10200 10650
F 0 "#PWR0128" H 10200 10400 50  0001 C CNN
F 1 "Earth" H 10200 10500 50  0001 C CNN
F 2 "" H 10200 10650 50  0001 C CNN
F 3 "~" H 10200 10650 50  0001 C CNN
	1    10200 10650
	1    0    0    -1  
$EndComp
$Comp
L power:Earth #PWR0129
U 1 1 615388A1
P 10600 10650
F 0 "#PWR0129" H 10600 10400 50  0001 C CNN
F 1 "Earth" H 10600 10500 50  0001 C CNN
F 2 "" H 10600 10650 50  0001 C CNN
F 3 "~" H 10600 10650 50  0001 C CNN
	1    10600 10650
	1    0    0    -1  
$EndComp
$Comp
L power:Earth #PWR0130
U 1 1 615394F3
P 11000 10650
F 0 "#PWR0130" H 11000 10400 50  0001 C CNN
F 1 "Earth" H 11000 10500 50  0001 C CNN
F 2 "" H 11000 10650 50  0001 C CNN
F 3 "~" H 11000 10650 50  0001 C CNN
	1    11000 10650
	1    0    0    -1  
$EndComp
Wire Wire Line
	9400 10600 9400 10650
Wire Wire Line
	9800 10600 9800 10650
Wire Wire Line
	10200 10600 10200 10650
Wire Wire Line
	10600 10600 10600 10650
Wire Wire Line
	11000 10600 11000 10650
Wire Wire Line
	11000 10250 11000 10300
Wire Wire Line
	10600 10250 10600 10300
Wire Wire Line
	10200 10250 10200 10300
Wire Wire Line
	9800 10250 9800 10300
Wire Wire Line
	9400 10250 9400 10300
Text Label 9400 9600 3    50   ~ 0
SD_REG
Wire Wire Line
	9400 9600 9400 9950
Wire Wire Line
	11000 9950 11000 9850
$Comp
L power:+3V3 #PWR0131
U 1 1 6156877C
P 11000 9850
F 0 "#PWR0131" H 11000 9700 50  0001 C CNN
F 1 "+3V3" H 11015 10023 50  0000 C CNN
F 2 "" H 11000 9850 50  0001 C CNN
F 3 "" H 11000 9850 50  0001 C CNN
	1    11000 9850
	1    0    0    -1  
$EndComp
Wire Wire Line
	9800 9950 9800 9600
Text Label 9800 9600 3    50   ~ 0
AMS_RCV
Text Label 10200 9600 3    50   ~ 0
WIFI_TX
Wire Wire Line
	10200 9600 10200 9950
Wire Wire Line
	10600 9950 10600 9600
Text Label 10600 9600 3    50   ~ 0
LED_4
Connection ~ 7000 6100
Wire Notes Line
	16000 500  16000 3050
Wire Notes Line
	16000 3050 7700 3050
Wire Notes Line
	7700 3050 7700 500 
Text Notes 8200 2950 0    50   ~ 0
Power management
Wire Notes Line
	15950 3400 13250 3400
Wire Notes Line
	13250 3400 13250 8300
Wire Notes Line
	13250 8300 15950 8300
Wire Notes Line
	15950 8300 15950 3400
Text Notes 13400 8200 0    50   ~ 0
External interfaces
Text Notes 9500 11050 0    50   ~ 0
Status LEDs
Text Notes 600  3900 0    50   ~ 0
MBus
Wire Notes Line
	500  500  4750 500 
Wire Notes Line
	4750 500  4750 4000
Wire Notes Line
	4750 4000 500  4000
Wire Notes Line
	500  4000 500  500 
$Comp
L ams_iot_reader:NVC8164ASN330 U4
U 1 1 613A2F1B
P 14100 1650
F 0 "U4" H 14100 2025 50  0000 C CNN
F 1 "NVC8164ASN330" H 14100 1934 50  0000 C CNN
F 2 "Package_SO:TSOP-5_1.65x3.05mm_P0.95mm" H 14100 1650 50  0001 C CNN
F 3 "" H 14100 1650 50  0001 C CNN
	1    14100 1650
	1    0    0    -1  
$EndComp
Wire Wire Line
	14400 1500 14700 1500
$Comp
L Device:C C10
U 1 1 6142CFAB
P 14700 1650
F 0 "C10" H 14815 1696 50  0000 L CNN
F 1 "10uF" H 14815 1605 50  0000 L CNN
F 2 "Capacitor_SMD:C_0603_1608Metric_Pad1.08x0.95mm_HandSolder" H 14738 1500 50  0001 C CNN
F 3 "~" H 14700 1650 50  0001 C CNN
F 4 "Ceramic" H 14950 1500 50  0000 C CNN "Type"
	1    14700 1650
	1    0    0    -1  
$EndComp
Wire Wire Line
	14100 1900 14100 2050
Text Label 12650 2250 0    50   ~ 0
POWER_EN
Wire Wire Line
	12650 2250 13200 2250
$Comp
L power:+3V3 #PWR0124
U 1 1 61473484
P 13200 1850
F 0 "#PWR0124" H 13200 1700 50  0001 C CNN
F 1 "+3V3" H 13215 2023 50  0000 C CNN
F 2 "" H 13200 1850 50  0001 C CNN
F 3 "" H 13200 1850 50  0001 C CNN
	1    13200 1850
	1    0    0    -1  
$EndComp
Wire Wire Line
	13200 1900 13200 1850
$Comp
L Device:R R15
U 1 1 6146F6C1
P 13200 2050
F 0 "R15" H 13270 2096 50  0000 L CNN
F 1 "10k" H 13270 2005 50  0000 L CNN
F 2 "Resistor_SMD:R_0603_1608Metric_Pad0.98x0.95mm_HandSolder" V 13130 2050 50  0001 C CNN
F 3 "~" H 13200 2050 50  0001 C CNN
	1    13200 2050
	1    0    0    -1  
$EndComp
Wire Wire Line
	13200 2250 13200 2200
Wire Wire Line
	13200 2250 13550 2250
Wire Wire Line
	13550 2250 13550 1600
Wire Wire Line
	13550 1600 13800 1600
Connection ~ 13200 2250
Wire Wire Line
	12900 900  13550 900 
$Comp
L power:Earth #PWR0142
U 1 1 613F376A
P 12900 1400
F 0 "#PWR0142" H 12900 1150 50  0001 C CNN
F 1 "Earth" H 12900 1250 50  0001 C CNN
F 2 "" H 12900 1400 50  0001 C CNN
F 3 "~" H 12900 1400 50  0001 C CNN
	1    12900 1400
	1    0    0    -1  
$EndComp
Wire Wire Line
	13800 1500 13550 1500
Wire Wire Line
	13550 1500 13550 900 
Wire Wire Line
	14400 1600 14500 1600
Wire Wire Line
	14500 1600 14500 2250
Wire Wire Line
	14500 2250 15100 2250
Text Label 15100 2250 2    50   ~ 0
POWER_GOOD
Wire Wire Line
	9150 5900 9650 5900
Text Label 9650 5900 2    50   ~ 0
POWER_GOOD
$Comp
L Switch:SW_DIP_x01 SW1
U 1 1 61434193
P 15050 5250
F 0 "SW1" H 15050 5517 50  0000 C CNN
F 1 "BootSwitch" H 15050 5426 50  0000 C CNN
F 2 "ams_iot_reader:DS04-254-2-01BK-SMT" H 15050 5250 50  0001 C CNN
F 3 "~" H 15050 5250 50  0001 C CNN
	1    15050 5250
	1    0    0    -1  
$EndComp
Wire Wire Line
	1500 2800 2150 2800
Wire Wire Line
	1500 2800 1500 2850
Wire Wire Line
	1950 1000 1950 1050
$Comp
L Device:C C12
U 1 1 614DFF7B
P 1600 1200
F 0 "C12" H 1715 1246 50  0000 L CNN
F 1 "0.1uF" H 1715 1155 50  0000 L CNN
F 2 "Capacitor_SMD:C_0603_1608Metric_Pad1.08x0.95mm_HandSolder" H 1638 1050 50  0001 C CNN
F 3 "~" H 1600 1200 50  0001 C CNN
	1    1600 1200
	1    0    0    -1  
$EndComp
Wire Wire Line
	1950 1050 1600 1050
Connection ~ 1950 1050
Wire Wire Line
	1950 1050 1950 1550
Wire Wire Line
	1600 1350 1600 1450
$Comp
L power:Earth #PWR0143
U 1 1 614F341D
P 1600 1450
F 0 "#PWR0143" H 1600 1200 50  0001 C CNN
F 1 "Earth" H 1600 1300 50  0001 C CNN
F 2 "" H 1600 1450 50  0001 C CNN
F 3 "~" H 1600 1450 50  0001 C CNN
	1    1600 1450
	1    0    0    -1  
$EndComp
$Comp
L Device:C C13
U 1 1 614FE967
P 8950 1500
F 0 "C13" H 9065 1546 50  0000 L CNN
F 1 "4.7uF" H 9065 1455 50  0000 L CNN
F 2 "Capacitor_SMD:C_0603_1608Metric_Pad1.08x0.95mm_HandSolder" H 8988 1350 50  0001 C CNN
F 3 "~" H 8950 1500 50  0001 C CNN
	1    8950 1500
	1    0    0    -1  
$EndComp
Wire Wire Line
	8950 1200 8950 1350
Connection ~ 8950 1200
Wire Wire Line
	8950 1200 9650 1200
Wire Wire Line
	8400 1200 8600 1200
Wire Wire Line
	8950 1650 8950 1750
$Comp
L power:Earth #PWR0144
U 1 1 6151C83F
P 8950 1750
F 0 "#PWR0144" H 8950 1500 50  0001 C CNN
F 1 "Earth" H 8950 1600 50  0001 C CNN
F 2 "" H 8950 1750 50  0001 C CNN
F 3 "~" H 8950 1750 50  0001 C CNN
	1    8950 1750
	1    0    0    -1  
$EndComp
NoConn ~ 10700 5100
NoConn ~ 7950 5600
NoConn ~ 7950 5700
NoConn ~ 7950 5800
NoConn ~ 7950 5900
NoConn ~ 7950 6000
NoConn ~ 7950 6200
NoConn ~ 7950 6300
NoConn ~ 9150 5600
NoConn ~ 9150 5700
NoConn ~ 9150 5800
NoConn ~ 9150 6000
NoConn ~ 9150 6100
NoConn ~ 9150 6200
NoConn ~ 9150 6300
NoConn ~ 9150 6400
NoConn ~ 7950 5200
NoConn ~ 7950 5300
NoConn ~ 7950 5400
NoConn ~ 7950 5500
NoConn ~ 9150 6900
NoConn ~ 9150 7000
$Comp
L power:VBUS #PWR0145
U 1 1 615CBEE5
P 8600 1100
F 0 "#PWR0145" H 8600 950 50  0001 C CNN
F 1 "VBUS" H 8615 1273 50  0000 C CNN
F 2 "" H 8600 1100 50  0001 C CNN
F 3 "" H 8600 1100 50  0001 C CNN
	1    8600 1100
	1    0    0    -1  
$EndComp
Wire Wire Line
	8600 1200 8600 1100
Connection ~ 8600 1200
Wire Wire Line
	8600 1200 8950 1200
$Comp
L Connector_Generic:Conn_01x02 J4
U 1 1 6174187A
P 15050 6100
F 0 "J4" H 15130 6092 50  0000 L CNN
F 1 "Debug" H 15130 6001 50  0000 L CNN
F 2 "Connector_PinHeader_1.27mm:PinHeader_1x02_P1.27mm_Vertical" H 15050 6100 50  0001 C CNN
F 3 "~" H 15050 6100 50  0001 C CNN
	1    15050 6100
	1    0    0    -1  
$EndComp
$Comp
L Connector_Generic:Conn_01x02 J5
U 1 1 6176036F
P 15050 6800
F 0 "J5" H 15130 6792 50  0000 L CNN
F 1 "Power" H 15130 6701 50  0000 L CNN
F 2 "Connector_PinHeader_1.27mm:PinHeader_1x02_P1.27mm_Vertical" H 15050 6800 50  0001 C CNN
F 3 "~" H 15050 6800 50  0001 C CNN
	1    15050 6800
	1    0    0    -1  
$EndComp
Connection ~ 14850 6800
Wire Wire Line
	14850 6800 14700 6800
Connection ~ 14850 6900
Wire Wire Line
	14850 6900 14700 6900
$EndSCHEMATC
