EESchema Schematic File Version 4
EELAYER 30 0
EELAYER END
$Descr A4 11693 8268
encoding utf-8
Sheet 1 1
Title "IoT AMS Meter"
Date "2021-09-24"
Rev "Rev2"
Comp ""
Comment1 ""
Comment2 ""
Comment3 ""
Comment4 ""
$EndDescr
$Comp
L ams_iot_reader:TSS721A U1
U 1 1 6129503A
P 1800 1900
F 0 "U1" H 1350 2500 50  0000 C CNN
F 1 "TSS721A" H 1450 2400 50  0000 C CNN
F 2 "ams_iot_reader:R-PDSO-G16" H 1750 900 50  0001 C CNN
F 3 "https://www.ti.com/lit/ds/symlink/tss721a.pdf?HQS=dis-dk-null-digikeymode-dsf-pf-null-wwe&ts=1630056503644&ref_url=https%253A%252F%252Fwww.ti.com%252Fgeneral%252Fdocs%252Fsuppproductinfo.tsp%253FdistId%253D10%2526gotoUrl%253Dhttps%253A%252F%252Fwww.ti.com%252Flit%252Fgpn%252Ftss721a" H 2050 2400 50  0001 C CNN
	1    1800 1900
	1    0    0    -1  
$EndComp
Wire Wire Line
	6900 6150 6900 6250
Wire Wire Line
	6750 6100 6850 6100
$Comp
L ams_iot_reader:ESP32-S2-WROVER U2
U 1 1 61347BA8
P 6900 4800
F 0 "U2" H 6450 5850 50  0000 C CNN
F 1 "ESP32-S2-WROVER" H 7350 5850 50  0000 C CNN
F 2 "ams_iot_reader:ESP32-S2-WROVER-I" H 6100 2900 50  0001 C CNN
F 3 "https://www.espressif.com/sites/default/files/documentation/esp32-s2-wrover_esp32-s2-wrover-i_datasheet_en.pdf" H 7200 3600 50  0001 C CNN
F 4 "https://no.mouser.com/datasheet/2/891/esp32_s2_datasheet_en-1773066.pdf" H 6850 3050 50  0001 C CNN "Datasheet MCU"
F 5 "NOK 19,16" H 6900 4800 50  0001 C CNN "Price"
	1    6900 4800
	1    0    0    -1  
$EndComp
$Comp
L power:+3V3 #PWR0102
U 1 1 6134B43E
P 6900 3650
F 0 "#PWR0102" H 6900 3500 50  0001 C CNN
F 1 "+3V3" H 6915 3823 50  0000 C CNN
F 2 "" H 6900 3650 50  0001 C CNN
F 3 "" H 6900 3650 50  0001 C CNN
	1    6900 3650
	1    0    0    -1  
$EndComp
$Comp
L Device:C C2
U 1 1 6134F0EF
P 5450 3600
F 0 "C2" H 5565 3646 50  0000 L CNN
F 1 "22uF" H 5565 3555 50  0000 L CNN
F 2 "Capacitor_SMD:C_0603_1608Metric" H 5488 3450 50  0001 C CNN
F 3 "~" H 5450 3600 50  0001 C CNN
	1    5450 3600
	1    0    0    -1  
$EndComp
Wire Wire Line
	4950 3300 4950 3450
Wire Wire Line
	4950 3750 4950 3850
$Comp
L Device:C C1
U 1 1 6134ED1B
P 4950 3600
F 0 "C1" H 5065 3646 50  0000 L CNN
F 1 "0.1uF" H 5065 3555 50  0000 L CNN
F 2 "Capacitor_SMD:C_0603_1608Metric" H 4988 3450 50  0001 C CNN
F 3 "~" H 4950 3600 50  0001 C CNN
	1    4950 3600
	1    0    0    -1  
$EndComp
Wire Wire Line
	7500 3950 8400 3950
$Comp
L Device:C C3
U 1 1 6135BC40
P 8400 4150
F 0 "C3" H 8515 4196 50  0000 L CNN
F 1 "C" H 8515 4105 50  0000 L CNN
F 2 "Capacitor_SMD:C_0603_1608Metric" H 8438 4000 50  0001 C CNN
F 3 "~" H 8400 4150 50  0001 C CNN
	1    8400 4150
	1    0    0    -1  
$EndComp
Wire Wire Line
	8400 3950 8400 4000
Wire Wire Line
	8400 3950 8400 3900
Connection ~ 8400 3950
$Comp
L Device:R R1
U 1 1 6135D417
P 8400 3750
F 0 "R1" H 8330 3704 50  0000 R CNN
F 1 "R" H 8330 3795 50  0000 R CNN
F 2 "Resistor_SMD:R_0603_1608Metric" V 8330 3750 50  0001 C CNN
F 3 "~" H 8400 3750 50  0001 C CNN
	1    8400 3750
	-1   0    0    1   
$EndComp
Wire Wire Line
	8400 3600 8400 3550
$Comp
L power:+3V3 #PWR0104
U 1 1 6135DD79
P 8400 3550
F 0 "#PWR0104" H 8400 3400 50  0001 C CNN
F 1 "+3V3" H 8415 3723 50  0000 C CNN
F 2 "" H 8400 3550 50  0001 C CNN
F 3 "" H 8400 3550 50  0001 C CNN
	1    8400 3550
	1    0    0    -1  
$EndComp
Wire Wire Line
	6750 6050 6750 6100
Wire Wire Line
	6850 6050 6850 6100
Wire Wire Line
	6850 6150 6900 6150
Wire Wire Line
	6950 6050 6950 6100
Wire Wire Line
	6950 6100 7050 6100
Wire Wire Line
	7050 6050 7050 6100
Connection ~ 6900 6150
Wire Wire Line
	6900 6150 6950 6150
Connection ~ 6950 6100
Wire Wire Line
	6950 6100 6950 6150
Connection ~ 6850 6100
Wire Wire Line
	6850 6100 6850 6150
Wire Wire Line
	9300 5550 9150 5550
Wire Wire Line
	9300 5650 8800 5650
$Comp
L power:+3V3 #PWR0107
U 1 1 61388D2A
P 8800 5000
F 0 "#PWR0107" H 8800 4850 50  0001 C CNN
F 1 "+3V3" H 8815 5173 50  0000 C CNN
F 2 "" H 8800 5000 50  0001 C CNN
F 3 "" H 8800 5000 50  0001 C CNN
	1    8800 5000
	1    0    0    -1  
$EndComp
Wire Wire Line
	9300 5850 8800 5850
Wire Wire Line
	9150 5550 9150 5350
Connection ~ 9150 5550
$Comp
L Device:R R3
U 1 1 6138A9B5
P 9150 5200
F 0 "R3" H 8900 5250 50  0000 L CNN
F 1 "10K" H 8900 5150 50  0000 L CNN
F 2 "Resistor_SMD:R_0603_1608Metric" V 9080 5200 50  0001 C CNN
F 3 "~" H 9150 5200 50  0001 C CNN
	1    9150 5200
	1    0    0    -1  
$EndComp
$Comp
L power:+3V3 #PWR0109
U 1 1 6138B12A
P 9150 5000
F 0 "#PWR0109" H 9150 4850 50  0001 C CNN
F 1 "+3V3" H 9165 5173 50  0000 C CNN
F 2 "" H 9150 5000 50  0001 C CNN
F 3 "" H 9150 5000 50  0001 C CNN
	1    9150 5000
	1    0    0    -1  
$EndComp
Wire Wire Line
	9150 5050 9150 5000
NoConn ~ 9300 6050
NoConn ~ 9300 5350
$Comp
L Device:C C4
U 1 1 6138FDFD
P 8400 5850
F 0 "C4" H 8515 5896 50  0000 L CNN
F 1 "0.1uF" H 8515 5805 50  0000 L CNN
F 2 "Capacitor_SMD:C_0603_1608Metric" H 8438 5700 50  0001 C CNN
F 3 "~" H 8400 5850 50  0001 C CNN
	1    8400 5850
	1    0    0    -1  
$EndComp
Wire Wire Line
	8400 6000 8400 6050
Wire Wire Line
	8800 5850 8800 6050
$Comp
L Connector:RJ45 J2
U 1 1 61399C01
P 3400 2050
F 0 "J2" H 3457 2717 50  0000 C CNN
F 1 "RJ45" H 3457 2626 50  0000 C CNN
F 2 "Connector_RJ:RJ45_Amphenol_54602-x08_Horizontal" V 3400 2075 50  0001 C CNN
F 3 "~" V 3400 2075 50  0001 C CNN
	1    3400 2050
	-1   0    0    1   
$EndComp
NoConn ~ 3000 1950
NoConn ~ 3000 2050
NoConn ~ 3000 2150
NoConn ~ 3000 2250
NoConn ~ 3000 2350
NoConn ~ 3000 2450
Wire Wire Line
	1800 2450 1800 3150
NoConn ~ 1200 2000
NoConn ~ 1200 2200
$Comp
L Device:R R6
U 1 1 613C9A8C
P 2700 1750
F 0 "R6" V 2493 1750 50  0000 C CNN
F 1 "220R" V 2584 1750 50  0000 C CNN
F 2 "Resistor_SMD:R_0805_2012Metric" V 2630 1750 50  0001 C CNN
F 3 "~" H 2700 1750 50  0001 C CNN
	1    2700 1750
	0    1    1    0   
$EndComp
$Comp
L Device:R R7
U 1 1 613CA4CC
P 2700 1850
F 0 "R7" V 2900 1850 50  0000 C CNN
F 1 "220R" V 2800 1850 50  0000 C CNN
F 2 "Resistor_SMD:R_0805_2012Metric" V 2630 1850 50  0001 C CNN
F 3 "~" H 2700 1850 50  0001 C CNN
	1    2700 1850
	0    1    1    0   
$EndComp
$Comp
L power:+3V3 #PWR0111
U 1 1 613D2C58
P 1700 800
F 0 "#PWR0111" H 1700 650 50  0001 C CNN
F 1 "+3V3" H 1715 973 50  0000 C CNN
F 2 "" H 1700 800 50  0001 C CNN
F 3 "" H 1700 800 50  0001 C CNN
	1    1700 800 
	1    0    0    -1  
$EndComp
Wire Wire Line
	1900 1350 1900 750 
Wire Wire Line
	1900 750  2400 750 
Wire Wire Line
	2400 750  2400 900 
$Comp
L Device:R R5
U 1 1 613D4B9E
P 2400 1050
F 0 "R5" H 2470 1096 50  0000 L CNN
F 1 "100K" H 2470 1005 50  0000 L CNN
F 2 "Resistor_SMD:R_0603_1608Metric" V 2330 1050 50  0001 C CNN
F 3 "~" H 2400 1050 50  0001 C CNN
	1    2400 1050
	1    0    0    -1  
$EndComp
Wire Wire Line
	2400 1200 2400 1250
Wire Wire Line
	2400 750  2750 750 
Wire Wire Line
	2750 750  2750 900 
Connection ~ 2400 750 
$Comp
L Device:C C7
U 1 1 613D8FD8
P 2750 1050
F 0 "C7" H 2865 1096 50  0000 L CNN
F 1 "100nF" H 2865 1005 50  0000 L CNN
F 2 "Capacitor_SMD:C_0603_1608Metric" H 2788 900 50  0001 C CNN
F 3 "~" H 2750 1050 50  0001 C CNN
	1    2750 1050
	1    0    0    -1  
$EndComp
Wire Wire Line
	2750 1200 2750 1250
Wire Wire Line
	1600 2450 1600 2600
$Comp
L Device:R R2
U 1 1 613DDD97
P 950 2800
F 0 "R2" H 1020 2846 50  0000 L CNN
F 1 "470R" H 1020 2755 50  0000 L CNN
F 2 "Resistor_SMD:R_0603_1608Metric" V 880 2800 50  0001 C CNN
F 3 "~" H 950 2800 50  0001 C CNN
	1    950  2800
	1    0    0    -1  
$EndComp
$Comp
L Device:R R4
U 1 1 613DE4FB
P 2350 2800
F 0 "R4" H 2420 2846 50  0000 L CNN
F 1 "220K" H 2420 2755 50  0000 L CNN
F 2 "Resistor_SMD:R_0603_1608Metric" V 2280 2800 50  0001 C CNN
F 3 "~" H 2350 2800 50  0001 C CNN
	1    2350 2800
	1    0    0    -1  
$EndComp
Wire Wire Line
	2000 2450 2000 2600
Wire Wire Line
	2000 2600 2350 2600
Wire Wire Line
	2350 2600 2350 2650
$Comp
L Device:C C6
U 1 1 613E58CB
P 2000 2950
F 0 "C6" H 2115 2996 50  0000 L CNN
F 1 "100nF" H 2115 2905 50  0000 L CNN
F 2 "Capacitor_SMD:C_0603_1608Metric" H 2038 2800 50  0001 C CNN
F 3 "~" H 2000 2950 50  0001 C CNN
	1    2000 2950
	1    0    0    -1  
$EndComp
$Comp
L Device:C_Polarized C5
U 1 1 613E63B7
P 1450 2900
F 0 "C5" H 1568 2946 50  0000 L CNN
F 1 "10uF" H 1568 2855 50  0000 L CNN
F 2 "Capacitor_SMD:C_0603_1608Metric" H 1488 2750 50  0001 C CNN
F 3 "~" H 1450 2900 50  0001 C CNN
	1    1450 2900
	1    0    0    -1  
$EndComp
Wire Wire Line
	1700 2450 1700 2750
Wire Wire Line
	1700 2750 1450 2750
Wire Wire Line
	2000 2750 1900 2750
Wire Wire Line
	1900 2750 1900 2450
Wire Wire Line
	2000 2750 2000 2800
$Comp
L power:+3V3 #PWR0114
U 1 1 6140B6EE
P 9400 3650
F 0 "#PWR0114" H 9400 3500 50  0001 C CNN
F 1 "+3V3" H 9415 3823 50  0000 C CNN
F 2 "" H 9400 3650 50  0001 C CNN
F 3 "" H 9400 3650 50  0001 C CNN
	1    9400 3650
	1    0    0    -1  
$EndComp
Wire Wire Line
	9400 3700 9400 3650
Wire Wire Line
	9400 3800 9400 3850
Wire Wire Line
	2350 2950 2350 3150
Wire Wire Line
	2000 3100 2000 3150
Wire Wire Line
	1450 3050 1450 3150
Wire Wire Line
	950  2950 950  3150
Wire Wire Line
	10250 900  10250 800 
Connection ~ 10250 900 
$Comp
L power:+3V3 #PWR0120
U 1 1 614398F5
P 10250 800
F 0 "#PWR0120" H 10250 650 50  0001 C CNN
F 1 "+3V3" H 10265 973 50  0000 C CNN
F 2 "" H 10250 800 50  0001 C CNN
F 3 "" H 10250 800 50  0001 C CNN
	1    10250 800 
	1    0    0    -1  
$EndComp
Wire Wire Line
	10250 1200 10250 1250
$Comp
L power:+BATT #PWR0123
U 1 1 6144C218
P 9200 850
F 0 "#PWR0123" H 9200 700 50  0001 C CNN
F 1 "+BATT" H 9215 1023 50  0000 C CNN
F 2 "" H 9200 850 50  0001 C CNN
F 3 "" H 9200 850 50  0001 C CNN
	1    9200 850 
	1    0    0    -1  
$EndComp
Wire Wire Line
	2850 1750 3000 1750
Wire Wire Line
	2850 1850 3000 1850
Wire Wire Line
	2350 1850 2550 1850
Wire Wire Line
	2350 1750 2550 1750
Text Notes 2500 2150 0    50   ~ 0
*See note 1
Text Notes 7000 7100 0    50   ~ 0
Note 1: Should be able to handle 24V so should be high power resistor\nNote 2: You should not connect a USB supply that cannot supply 500mA!\nNote 3: On the ESP32-S2-SAOLA-1 board RTS and DTR are used to reset and set board in boot mode,\nbut I think this can be done manually\nNote 4: There is some power here that should be harvested in the future.
Text Label 600  1750 0    50   ~ 0
POWER_FAIL
Wire Wire Line
	600  1750 1200 1750
Wire Wire Line
	8400 3950 8850 3950
Text Label 8850 3950 2    50   ~ 0
ESP_RST
Text Label 8050 4100 2    50   ~ 0
UART_TX
Wire Wire Line
	7500 4100 8050 4100
Text Label 8050 4200 2    50   ~ 0
UART_RX
Wire Wire Line
	7500 4200 8050 4200
Wire Wire Line
	2950 5050 2300 5050
Text Label 2950 5050 2    50   ~ 0
UART_RX
Text Label 2950 5150 2    50   ~ 0
UART_TX
Wire Wire Line
	2950 5150 2300 5150
Wire Wire Line
	8900 5450 9300 5450
Text Label 8900 5450 0    50   ~ 0
SD_CS
Text Label 8900 5550 0    50   ~ 0
MOSI
Wire Wire Line
	8900 5550 9150 5550
Text Label 8900 5750 0    50   ~ 0
SCK
Wire Wire Line
	8900 5750 9300 5750
Text Label 8900 5950 0    50   ~ 0
MISO
Wire Wire Line
	8900 5950 9300 5950
Wire Wire Line
	600  1900 1200 1900
Text Label 600  1900 0    50   ~ 0
AMS_TX
Text Label 600  2100 0    50   ~ 0
AMS_RX
Wire Wire Line
	600  2100 1200 2100
Text Label 5800 3950 0    50   ~ 0
BOOT_OPT
Wire Wire Line
	5800 3950 6300 3950
Wire Wire Line
	10500 4650 10550 4650
Wire Wire Line
	10550 4650 10550 4750
Text Label 9600 4650 0    50   ~ 0
BOOT_OPT
Wire Wire Line
	9600 4650 9900 4650
$Comp
L Battery_Management:MAX1811 U3
U 1 1 61524231
P 7300 1150
F 0 "U3" H 7350 1617 50  0000 C CNN
F 1 "MAX1811" H 7350 1526 50  0000 C CNN
F 2 "Package_SO:SOIC-8_3.9x4.9mm_P1.27mm" H 7550 800 50  0001 L CNN
F 3 "https://datasheets.maximintegrated.com/en/ds/MAX1811.pdf" H 7300 450 50  0001 C CNN
	1    7300 1150
	1    0    0    -1  
$EndComp
NoConn ~ 1200 1650
NoConn ~ 2350 2050
Wire Wire Line
	5800 5450 6300 5450
Text Label 5800 5450 0    50   ~ 0
AMS_TX
Text Label 5800 5250 0    50   ~ 0
AMS_RX
Wire Wire Line
	5800 5250 6300 5250
Text Label 5800 5350 0    50   ~ 0
POWER_FAIL
Wire Wire Line
	5800 5350 6300 5350
Text Label 8050 5450 2    50   ~ 0
SD_REG
Text Label 8050 5350 2    50   ~ 0
AMS_RCV
Text Label 8050 5650 2    50   ~ 0
WIFI_TX
Text Label 8050 5550 2    50   ~ 0
LED_4
Wire Wire Line
	8050 5550 7500 5550
Wire Wire Line
	8050 5650 7500 5650
Wire Wire Line
	8050 5350 7500 5350
Wire Wire Line
	8050 5450 7500 5450
Text Label 5750 5850 0    50   ~ 0
SD_CS
Text Label 5750 5750 0    50   ~ 0
MOSI
Text Label 5750 5550 0    50   ~ 0
MISO
Text Label 5750 5650 0    50   ~ 0
SCK
Wire Wire Line
	5750 5550 6300 5550
Wire Wire Line
	5750 5650 6300 5650
Wire Wire Line
	5750 5750 6300 5750
Wire Wire Line
	5750 5850 6300 5850
$Comp
L Device:R R10
U 1 1 61624165
P 6400 1200
F 0 "R10" H 6470 1246 50  0000 L CNN
F 1 "10k" H 6470 1155 50  0000 L CNN
F 2 "Resistor_SMD:R_0603_1608Metric" V 6330 1200 50  0001 C CNN
F 3 "~" H 6400 1200 50  0001 C CNN
	1    6400 1200
	1    0    0    -1  
$EndComp
Wire Wire Line
	6400 1000 6400 1050
$Comp
L Device:LED D6
U 1 1 616576D3
P 9900 2600
F 0 "D6" V 9939 2482 50  0000 R CNN
F 1 "CHG_LED" V 9848 2482 50  0000 R CNN
F 2 "Diode_SMD:D_0603_1608Metric" H 9900 2600 50  0001 C CNN
F 3 "~" H 9900 2600 50  0001 C CNN
	1    9900 2600
	0    -1   -1   0   
$EndComp
$Comp
L Device:R R14
U 1 1 6165E3A0
P 9900 2250
F 0 "R14" H 9970 2296 50  0000 L CNN
F 1 "316R" H 9970 2205 50  0000 L CNN
F 2 "Resistor_SMD:R_0603_1608Metric" V 9830 2250 50  0001 C CNN
F 3 "~" H 9900 2250 50  0001 C CNN
	1    9900 2250
	1    0    0    -1  
$EndComp
Wire Wire Line
	9900 2400 9900 2450
$Comp
L power:VBUS #PWR0135
U 1 1 61678A63
P 9900 2050
F 0 "#PWR0135" H 9900 1900 50  0001 C CNN
F 1 "VBUS" H 9915 2223 50  0000 C CNN
F 2 "" H 9900 2050 50  0001 C CNN
F 3 "" H 9900 2050 50  0001 C CNN
	1    9900 2050
	1    0    0    -1  
$EndComp
Wire Wire Line
	9900 2050 9900 2100
Wire Wire Line
	7300 1600 7300 1550
Wire Wire Line
	7400 1550 7400 1600
Wire Wire Line
	7400 1600 7350 1600
Wire Wire Line
	7350 1600 7350 1650
Connection ~ 7350 1600
Wire Wire Line
	7350 1600 7300 1600
Wire Wire Line
	4200 2450 4200 2500
Wire Wire Line
	4200 2500 4350 2500
Wire Wire Line
	4500 2500 4500 2450
Wire Wire Line
	4350 2500 4350 2550
Connection ~ 4350 2500
Wire Wire Line
	4350 2500 4500 2500
$Comp
L Connector_Generic:Conn_01x02 BATT1
U 1 1 616FA406
P 10600 3400
F 0 "BATT1" H 10680 3392 50  0000 L CNN
F 1 "JST-XHP-2" H 10680 3301 50  0000 L CNN
F 2 "Connector_PinHeader_1.27mm:PinHeader_1x02_P1.27mm_Vertical" H 10600 3400 50  0001 C CNN
F 3 "~" H 10600 3400 50  0001 C CNN
	1    10600 3400
	1    0    0    -1  
$EndComp
Wire Wire Line
	10400 3400 10350 3400
Wire Wire Line
	10350 3400 10350 3350
$Comp
L power:+BATT #PWR0132
U 1 1 6170E7DC
P 10350 3350
F 0 "#PWR0132" H 10350 3200 50  0001 C CNN
F 1 "+BATT" H 10365 3523 50  0000 C CNN
F 2 "" H 10350 3350 50  0001 C CNN
F 3 "" H 10350 3350 50  0001 C CNN
	1    10350 3350
	1    0    0    -1  
$EndComp
Wire Wire Line
	10400 3500 10350 3500
Wire Wire Line
	10350 3500 10350 3550
$Comp
L power:+3V3 #PWR0139
U 1 1 6177727C
P 6400 1000
F 0 "#PWR0139" H 6400 850 50  0001 C CNN
F 1 "+3V3" H 6415 1173 50  0000 C CNN
F 2 "" H 6400 1000 50  0001 C CNN
F 3 "" H 6400 1000 50  0001 C CNN
	1    6400 1000
	1    0    0    -1  
$EndComp
Text Notes 6300 1450 0    50   ~ 0
*See note 2
Wire Wire Line
	6900 1250 6750 1250
Wire Wire Line
	6750 1250 6750 1050
Wire Wire Line
	6750 950  6900 950 
Wire Wire Line
	6900 1050 6750 1050
Connection ~ 6750 1050
Wire Wire Line
	6750 1050 6750 950 
$Comp
L power:+BATT #PWR0140
U 1 1 617CA821
P 4950 4500
F 0 "#PWR0140" H 4950 4350 50  0001 C CNN
F 1 "+BATT" H 4965 4673 50  0000 C CNN
F 2 "" H 4950 4500 50  0001 C CNN
F 3 "" H 4950 4500 50  0001 C CNN
	1    4950 4500
	-1   0    0    -1  
$EndComp
$Comp
L Device:R R17
U 1 1 617CB05B
P 4950 4750
F 0 "R17" H 5020 4796 50  0000 L CNN
F 1 "4.3M" H 5020 4705 50  0000 L CNN
F 2 "Resistor_SMD:R_0603_1608Metric" V 4880 4750 50  0001 C CNN
F 3 "~" H 4950 4750 50  0001 C CNN
	1    4950 4750
	1    0    0    -1  
$EndComp
$Comp
L Device:R R18
U 1 1 617CBA63
P 4950 5200
F 0 "R18" H 5020 5246 50  0000 L CNN
F 1 "10M" H 5020 5155 50  0000 L CNN
F 2 "Resistor_SMD:R_0603_1608Metric" V 4880 5200 50  0001 C CNN
F 3 "~" H 4950 5200 50  0001 C CNN
	1    4950 5200
	1    0    0    -1  
$EndComp
Wire Wire Line
	4950 4500 4950 4600
Wire Wire Line
	4950 4900 4950 4950
Wire Wire Line
	4950 5350 4950 5400
Wire Wire Line
	4950 4950 5350 4950
Connection ~ 4950 4950
Wire Wire Line
	4950 4950 4950 5050
Text Label 5800 4950 0    50   ~ 0
V_BAT
$Comp
L Device:C C11
U 1 1 617F1C31
P 5350 5200
F 0 "C11" H 5465 5246 50  0000 L CNN
F 1 "0.1uF" H 5465 5155 50  0000 L CNN
F 2 "Capacitor_SMD:C_0603_1608Metric" H 5388 5050 50  0001 C CNN
F 3 "~" H 5350 5200 50  0001 C CNN
	1    5350 5200
	1    0    0    -1  
$EndComp
Wire Wire Line
	5350 4950 5350 5050
Wire Wire Line
	5350 5350 5350 5400
Wire Wire Line
	5350 5400 4950 5400
Connection ~ 4950 5400
Wire Wire Line
	4950 5400 4950 5500
Wire Wire Line
	5350 4950 6300 4950
$Comp
L Connector:Micro_SD_Card J1
U 1 1 61378F8B
P 10200 5650
F 0 "J1" H 10150 6367 50  0000 C CNN
F 1 "Micro_SD_Card" H 10150 6276 50  0000 C CNN
F 2 "Connector_Card:microSD_HC_Wuerth_693072010801" H 11350 5950 50  0001 C CNN
F 3 "http://katalog.we-online.de/em/datasheet/693072010801.pdf" H 10200 5650 50  0001 C CNN
	1    10200 5650
	1    0    0    -1  
$EndComp
Wire Wire Line
	11000 6250 11050 6250
$Comp
L Device:LED D1
U 1 1 6152939C
P 4850 6750
F 0 "D1" V 4889 6632 50  0000 R CNN
F 1 "LED" V 4798 6632 50  0000 R CNN
F 2 "Diode_SMD:D_0603_1608Metric" H 4850 6750 50  0001 C CNN
F 3 "~" H 4850 6750 50  0001 C CNN
	1    4850 6750
	0    -1   -1   0   
$EndComp
$Comp
L Device:LED D2
U 1 1 61529B0B
P 5250 6750
F 0 "D2" V 5289 6632 50  0000 R CNN
F 1 "LED" V 5198 6632 50  0000 R CNN
F 2 "Diode_SMD:D_0603_1608Metric" H 5250 6750 50  0001 C CNN
F 3 "~" H 5250 6750 50  0001 C CNN
	1    5250 6750
	0    -1   -1   0   
$EndComp
$Comp
L Device:LED D3
U 1 1 6152A255
P 5650 6750
F 0 "D3" V 5689 6632 50  0000 R CNN
F 1 "LED" V 5598 6632 50  0000 R CNN
F 2 "Diode_SMD:D_0603_1608Metric" H 5650 6750 50  0001 C CNN
F 3 "~" H 5650 6750 50  0001 C CNN
	1    5650 6750
	0    -1   -1   0   
$EndComp
$Comp
L Device:LED D4
U 1 1 6152AA2E
P 6050 6750
F 0 "D4" V 6089 6632 50  0000 R CNN
F 1 "LED" V 5998 6632 50  0000 R CNN
F 2 "Diode_SMD:D_0603_1608Metric" H 6050 6750 50  0001 C CNN
F 3 "~" H 6050 6750 50  0001 C CNN
	1    6050 6750
	0    -1   -1   0   
$EndComp
$Comp
L Device:LED D5
U 1 1 6152AE47
P 6450 6750
F 0 "D5" V 6489 6632 50  0000 R CNN
F 1 "LED" V 6398 6632 50  0000 R CNN
F 2 "Diode_SMD:D_0603_1608Metric" H 6450 6750 50  0001 C CNN
F 3 "~" H 6450 6750 50  0001 C CNN
	1    6450 6750
	0    -1   -1   0   
$EndComp
$Comp
L Device:R R8
U 1 1 61534E44
P 4850 7100
F 0 "R8" H 4920 7146 50  0000 L CNN
F 1 "200R" H 4920 7055 50  0000 L CNN
F 2 "Resistor_SMD:R_0603_1608Metric" V 4780 7100 50  0001 C CNN
F 3 "~" H 4850 7100 50  0001 C CNN
	1    4850 7100
	1    0    0    -1  
$EndComp
$Comp
L Device:R R9
U 1 1 61535608
P 5250 7100
F 0 "R9" H 5320 7146 50  0000 L CNN
F 1 "200R" H 5320 7055 50  0000 L CNN
F 2 "Resistor_SMD:R_0603_1608Metric" V 5180 7100 50  0001 C CNN
F 3 "~" H 5250 7100 50  0001 C CNN
	1    5250 7100
	1    0    0    -1  
$EndComp
$Comp
L Device:R R11
U 1 1 61535BD8
P 5650 7100
F 0 "R11" H 5720 7146 50  0000 L CNN
F 1 "200R" H 5720 7055 50  0000 L CNN
F 2 "Resistor_SMD:R_0603_1608Metric" V 5580 7100 50  0001 C CNN
F 3 "~" H 5650 7100 50  0001 C CNN
	1    5650 7100
	1    0    0    -1  
$EndComp
$Comp
L Device:R R12
U 1 1 61536740
P 6050 7100
F 0 "R12" H 6120 7146 50  0000 L CNN
F 1 "200R" H 6120 7055 50  0000 L CNN
F 2 "Resistor_SMD:R_0603_1608Metric" V 5980 7100 50  0001 C CNN
F 3 "~" H 6050 7100 50  0001 C CNN
	1    6050 7100
	1    0    0    -1  
$EndComp
$Comp
L Device:R R13
U 1 1 61536D30
P 6450 7100
F 0 "R13" H 6520 7146 50  0000 L CNN
F 1 "200R" H 6520 7055 50  0000 L CNN
F 2 "Resistor_SMD:R_0603_1608Metric" V 6380 7100 50  0001 C CNN
F 3 "~" H 6450 7100 50  0001 C CNN
	1    6450 7100
	1    0    0    -1  
$EndComp
Wire Wire Line
	4850 7250 4850 7300
Wire Wire Line
	5250 7250 5250 7300
Wire Wire Line
	5650 7250 5650 7300
Wire Wire Line
	6050 7250 6050 7300
Wire Wire Line
	6450 7250 6450 7300
Wire Wire Line
	6450 6900 6450 6950
Wire Wire Line
	6050 6900 6050 6950
Wire Wire Line
	5650 6900 5650 6950
Wire Wire Line
	5250 6900 5250 6950
Wire Wire Line
	4850 6900 4850 6950
Text Label 4850 6250 3    50   ~ 0
SD_REG
Wire Wire Line
	4850 6250 4850 6600
Wire Wire Line
	6450 6600 6450 6500
$Comp
L power:+3V3 #PWR0131
U 1 1 6156877C
P 6450 6500
F 0 "#PWR0131" H 6450 6350 50  0001 C CNN
F 1 "+3V3" H 6465 6673 50  0000 C CNN
F 2 "" H 6450 6500 50  0001 C CNN
F 3 "" H 6450 6500 50  0001 C CNN
	1    6450 6500
	1    0    0    -1  
$EndComp
Wire Wire Line
	5250 6600 5250 6250
Text Label 5250 6250 3    50   ~ 0
AMS_RCV
Text Label 5650 6250 3    50   ~ 0
WIFI_TX
Wire Wire Line
	5650 6250 5650 6600
Wire Wire Line
	6050 6600 6050 6250
Text Label 6050 6250 3    50   ~ 0
LED_4
Connection ~ 5350 4950
Wire Notes Line
	10900 500  10900 3050
Text Notes 3950 3000 0    50   ~ 0
Power management
Wire Notes Line
	11150 3100 9150 3100
Wire Notes Line
	11150 6500 11150 3100
Text Notes 8350 6450 0    50   ~ 0
External interfaces
Text Notes 4950 7700 0    50   ~ 0
Status LEDs
Text Notes 600  3250 0    50   ~ 0
MBus
Wire Notes Line
	500  3400 500  500 
Wire Wire Line
	9950 900  10250 900 
$Comp
L Device:C C10
U 1 1 6142CFAB
P 10250 1050
F 0 "C10" H 10365 1096 50  0000 L CNN
F 1 "10uF" H 10365 1005 50  0000 L CNN
F 2 "Capacitor_SMD:C_0603_1608Metric" H 10288 900 50  0001 C CNN
F 3 "~" H 10250 1050 50  0001 C CNN
F 4 "Ceramic" H 10500 900 50  0000 C CNN "Type"
	1    10250 1050
	1    0    0    -1  
$EndComp
Wire Wire Line
	9650 1300 9650 1450
$Comp
L Device:R R15
U 1 1 6146F6C1
P 8850 1050
F 0 "R15" H 8920 1096 50  0000 L CNN
F 1 "10k" H 8920 1005 50  0000 L CNN
F 2 "Resistor_SMD:R_0603_1608Metric" V 8780 1050 50  0001 C CNN
F 3 "~" H 8850 1050 50  0001 C CNN
	1    8850 1050
	1    0    0    -1  
$EndComp
Wire Wire Line
	8850 1250 9200 1250
Wire Wire Line
	9200 1250 9200 1000
Wire Wire Line
	9200 1000 9350 1000
Wire Wire Line
	9350 900  9200 900 
Wire Wire Line
	9950 1000 10050 1000
Wire Wire Line
	10050 1000 10050 1650
Wire Wire Line
	10050 1650 10650 1650
Text Label 10650 1650 2    50   ~ 0
POWER_GOOD
Wire Wire Line
	7500 4750 8050 4750
Text Label 8050 4750 2    50   ~ 0
POWER_GOOD
$Comp
L Switch:SW_DIP_x01 SW1
U 1 1 61434193
P 10200 4650
F 0 "SW1" H 10200 4917 50  0000 C CNN
F 1 "BootSwitch" H 10200 4826 50  0000 C CNN
F 2 "ams_iot_reader:EVPBT6A4A000" H 10200 4650 50  0001 C CNN
F 3 "~" H 10200 4650 50  0001 C CNN
	1    10200 4650
	1    0    0    -1  
$EndComp
Wire Wire Line
	950  2600 1600 2600
Wire Wire Line
	950  2600 950  2650
$Comp
L Device:C C12
U 1 1 614DFF7B
P 850 1000
F 0 "C12" H 965 1046 50  0000 L CNN
F 1 "0.1uF" H 965 955 50  0000 L CNN
F 2 "Capacitor_SMD:C_0603_1608Metric" H 888 850 50  0001 C CNN
F 3 "~" H 850 1000 50  0001 C CNN
	1    850  1000
	1    0    0    -1  
$EndComp
Wire Wire Line
	850  1150 850  1200
$Comp
L Device:C C13
U 1 1 614FE967
P 6750 2300
F 0 "C13" H 6865 2346 50  0000 L CNN
F 1 "4.7uF" H 6865 2255 50  0000 L CNN
F 2 "Capacitor_SMD:C_0603_1608Metric" H 6788 2150 50  0001 C CNN
F 3 "~" H 6750 2300 50  0001 C CNN
	1    6750 2300
	1    0    0    -1  
$EndComp
Wire Wire Line
	6400 2000 6400 2050
Wire Wire Line
	5100 950  5300 950 
NoConn ~ 6300 4450
NoConn ~ 6300 4550
NoConn ~ 6300 4650
NoConn ~ 6300 4750
NoConn ~ 6300 4850
NoConn ~ 6300 5050
NoConn ~ 6300 5150
NoConn ~ 7500 4450
NoConn ~ 7500 4550
NoConn ~ 7500 4650
NoConn ~ 7500 4850
NoConn ~ 7500 4950
NoConn ~ 7500 5050
NoConn ~ 7500 5150
NoConn ~ 7500 5250
NoConn ~ 6300 4050
NoConn ~ 6300 4350
NoConn ~ 7500 5750
NoConn ~ 7500 5850
$Comp
L power:VBUS #PWR0145
U 1 1 615CBEE5
P 5300 850
F 0 "#PWR0145" H 5300 700 50  0001 C CNN
F 1 "VBUS" H 5315 1023 50  0000 C CNN
F 2 "" H 5300 850 50  0001 C CNN
F 3 "" H 5300 850 50  0001 C CNN
	1    5300 850 
	1    0    0    -1  
$EndComp
Wire Wire Line
	5300 950  5300 850 
$Comp
L Connector_Generic:Conn_01x02 J5
U 1 1 6176036F
P 9650 3700
F 0 "J5" H 9730 3692 50  0000 L CNN
F 1 "Power" H 9730 3601 50  0000 L CNN
F 2 "Connector_PinHeader_1.27mm:PinHeader_1x02_P1.27mm_Vertical" H 9650 3700 50  0001 C CNN
F 3 "~" H 9650 3700 50  0001 C CNN
	1    9650 3700
	1    0    0    -1  
$EndComp
Wire Wire Line
	9450 3700 9400 3700
Wire Wire Line
	9450 3800 9400 3800
Wire Notes Line
	3850 500  3850 3400
Wire Notes Line
	3900 3050 3900 500 
Wire Notes Line
	10900 3050 3900 3050
Wire Notes Line
	3850 3400 500  3400
Wire Notes Line
	3900 500  10900 500 
Wire Notes Line
	3850 500  500  500 
Connection ~ 4950 3750
Wire Wire Line
	4950 3750 5450 3750
Connection ~ 4950 3450
Wire Wire Line
	4950 3450 5450 3450
Wire Wire Line
	6900 3650 6900 3700
$Comp
L power:+3V3 #PWR0101
U 1 1 61792E57
P 4950 3300
F 0 "#PWR0101" H 4950 3150 50  0001 C CNN
F 1 "+3V3" H 4965 3473 50  0000 C CNN
F 2 "" H 4950 3300 50  0001 C CNN
F 3 "" H 4950 3300 50  0001 C CNN
	1    4950 3300
	1    0    0    -1  
$EndComp
$Comp
L power:GND #PWR0103
U 1 1 617A9E77
P 8800 6050
F 0 "#PWR0103" H 8800 5800 50  0001 C CNN
F 1 "GND" H 8805 5877 50  0000 C CNN
F 2 "" H 8800 6050 50  0001 C CNN
F 3 "" H 8800 6050 50  0001 C CNN
	1    8800 6050
	1    0    0    -1  
$EndComp
$Comp
L power:GND #PWR0105
U 1 1 617AA8D1
P 11050 6250
F 0 "#PWR0105" H 11050 6000 50  0001 C CNN
F 1 "GND" H 11055 6077 50  0000 C CNN
F 2 "" H 11050 6250 50  0001 C CNN
F 3 "" H 11050 6250 50  0001 C CNN
	1    11050 6250
	1    0    0    -1  
$EndComp
$Comp
L power:GND #PWR0106
U 1 1 617ABA24
P 6900 6250
F 0 "#PWR0106" H 6900 6000 50  0001 C CNN
F 1 "GND" H 6905 6077 50  0000 C CNN
F 2 "" H 6900 6250 50  0001 C CNN
F 3 "" H 6900 6250 50  0001 C CNN
	1    6900 6250
	1    0    0    -1  
$EndComp
$Comp
L power:GND #PWR0110
U 1 1 617B6453
P 4950 3850
F 0 "#PWR0110" H 4950 3600 50  0001 C CNN
F 1 "GND" H 4955 3677 50  0000 C CNN
F 2 "" H 4950 3850 50  0001 C CNN
F 3 "" H 4950 3850 50  0001 C CNN
	1    4950 3850
	1    0    0    -1  
$EndComp
$Comp
L power:GND #PWR0112
U 1 1 617C03B5
P 4850 7300
F 0 "#PWR0112" H 4850 7050 50  0001 C CNN
F 1 "GND" H 4855 7127 50  0000 C CNN
F 2 "" H 4850 7300 50  0001 C CNN
F 3 "" H 4850 7300 50  0001 C CNN
	1    4850 7300
	1    0    0    -1  
$EndComp
$Comp
L power:GND #PWR0113
U 1 1 617CA241
P 5250 7300
F 0 "#PWR0113" H 5250 7050 50  0001 C CNN
F 1 "GND" H 5255 7127 50  0000 C CNN
F 2 "" H 5250 7300 50  0001 C CNN
F 3 "" H 5250 7300 50  0001 C CNN
	1    5250 7300
	1    0    0    -1  
$EndComp
$Comp
L power:GND #PWR0115
U 1 1 617D40AD
P 5650 7300
F 0 "#PWR0115" H 5650 7050 50  0001 C CNN
F 1 "GND" H 5655 7127 50  0000 C CNN
F 2 "" H 5650 7300 50  0001 C CNN
F 3 "" H 5650 7300 50  0001 C CNN
	1    5650 7300
	1    0    0    -1  
$EndComp
$Comp
L power:GND #PWR0116
U 1 1 617DDF32
P 6050 7300
F 0 "#PWR0116" H 6050 7050 50  0001 C CNN
F 1 "GND" H 6055 7127 50  0000 C CNN
F 2 "" H 6050 7300 50  0001 C CNN
F 3 "" H 6050 7300 50  0001 C CNN
	1    6050 7300
	1    0    0    -1  
$EndComp
$Comp
L power:GND #PWR0117
U 1 1 617E7E29
P 6450 7300
F 0 "#PWR0117" H 6450 7050 50  0001 C CNN
F 1 "GND" H 6455 7127 50  0000 C CNN
F 2 "" H 6450 7300 50  0001 C CNN
F 3 "" H 6450 7300 50  0001 C CNN
	1    6450 7300
	1    0    0    -1  
$EndComp
$Comp
L power:GND #PWR0118
U 1 1 617F1CDC
P 950 3150
F 0 "#PWR0118" H 950 2900 50  0001 C CNN
F 1 "GND" H 955 2977 50  0000 C CNN
F 2 "" H 950 3150 50  0001 C CNN
F 3 "" H 950 3150 50  0001 C CNN
	1    950  3150
	1    0    0    -1  
$EndComp
$Comp
L power:GND #PWR0119
U 1 1 617FBB5C
P 1450 3150
F 0 "#PWR0119" H 1450 2900 50  0001 C CNN
F 1 "GND" H 1455 2977 50  0000 C CNN
F 2 "" H 1450 3150 50  0001 C CNN
F 3 "" H 1450 3150 50  0001 C CNN
	1    1450 3150
	1    0    0    -1  
$EndComp
$Comp
L power:GND #PWR0121
U 1 1 61805A05
P 1800 3150
F 0 "#PWR0121" H 1800 2900 50  0001 C CNN
F 1 "GND" H 1805 2977 50  0000 C CNN
F 2 "" H 1800 3150 50  0001 C CNN
F 3 "" H 1800 3150 50  0001 C CNN
	1    1800 3150
	1    0    0    -1  
$EndComp
$Comp
L power:GND #PWR0122
U 1 1 6180F859
P 2000 3150
F 0 "#PWR0122" H 2000 2900 50  0001 C CNN
F 1 "GND" H 2005 2977 50  0000 C CNN
F 2 "" H 2000 3150 50  0001 C CNN
F 3 "" H 2000 3150 50  0001 C CNN
	1    2000 3150
	1    0    0    -1  
$EndComp
$Comp
L power:GND #PWR0125
U 1 1 61819614
P 2350 3150
F 0 "#PWR0125" H 2350 2900 50  0001 C CNN
F 1 "GND" H 2355 2977 50  0000 C CNN
F 2 "" H 2350 3150 50  0001 C CNN
F 3 "" H 2350 3150 50  0001 C CNN
	1    2350 3150
	1    0    0    -1  
$EndComp
$Comp
L power:GND #PWR0126
U 1 1 6182346D
P 2750 1250
F 0 "#PWR0126" H 2750 1000 50  0001 C CNN
F 1 "GND" H 2755 1077 50  0000 C CNN
F 2 "" H 2750 1250 50  0001 C CNN
F 3 "" H 2750 1250 50  0001 C CNN
	1    2750 1250
	1    0    0    -1  
$EndComp
$Comp
L power:GND #PWR0127
U 1 1 6182D2C1
P 2400 1250
F 0 "#PWR0127" H 2400 1000 50  0001 C CNN
F 1 "GND" H 2405 1077 50  0000 C CNN
F 2 "" H 2400 1250 50  0001 C CNN
F 3 "" H 2400 1250 50  0001 C CNN
	1    2400 1250
	1    0    0    -1  
$EndComp
$Comp
L power:GND #PWR0128
U 1 1 618371CC
P 850 1200
F 0 "#PWR0128" H 850 950 50  0001 C CNN
F 1 "GND" H 855 1027 50  0000 C CNN
F 2 "" H 850 1200 50  0001 C CNN
F 3 "" H 850 1200 50  0001 C CNN
	1    850  1200
	1    0    0    -1  
$EndComp
$Comp
L power:GND #PWR0129
U 1 1 61841042
P 4350 2550
F 0 "#PWR0129" H 4350 2300 50  0001 C CNN
F 1 "GND" H 4355 2377 50  0000 C CNN
F 2 "" H 4350 2550 50  0001 C CNN
F 3 "" H 4350 2550 50  0001 C CNN
	1    4350 2550
	1    0    0    -1  
$EndComp
$Comp
L power:GND #PWR0130
U 1 1 6184AF76
P 6400 2650
F 0 "#PWR0130" H 6400 2400 50  0001 C CNN
F 1 "GND" H 6400 2500 50  0000 C CNN
F 2 "" H 6400 2650 50  0001 C CNN
F 3 "" H 6400 2650 50  0001 C CNN
	1    6400 2650
	1    0    0    -1  
$EndComp
$Comp
L power:GND #PWR0134
U 1 1 61854E44
P 7350 1650
F 0 "#PWR0134" H 7350 1400 50  0001 C CNN
F 1 "GND" H 7355 1477 50  0000 C CNN
F 2 "" H 7350 1650 50  0001 C CNN
F 3 "" H 7350 1650 50  0001 C CNN
	1    7350 1650
	1    0    0    -1  
$EndComp
$Comp
L power:GND #PWR0138
U 1 1 61872A21
P 9650 1450
F 0 "#PWR0138" H 9650 1200 50  0001 C CNN
F 1 "GND" H 9655 1277 50  0000 C CNN
F 2 "" H 9650 1450 50  0001 C CNN
F 3 "" H 9650 1450 50  0001 C CNN
	1    9650 1450
	1    0    0    -1  
$EndComp
$Comp
L power:GND #PWR0141
U 1 1 6187C8FD
P 10250 1250
F 0 "#PWR0141" H 10250 1000 50  0001 C CNN
F 1 "GND" H 10255 1077 50  0000 C CNN
F 2 "" H 10250 1250 50  0001 C CNN
F 3 "" H 10250 1250 50  0001 C CNN
	1    10250 1250
	1    0    0    -1  
$EndComp
$Comp
L power:GND #PWR0142
U 1 1 61886701
P 10550 4750
F 0 "#PWR0142" H 10550 4500 50  0001 C CNN
F 1 "GND" H 10555 4577 50  0000 C CNN
F 2 "" H 10550 4750 50  0001 C CNN
F 3 "" H 10550 4750 50  0001 C CNN
	1    10550 4750
	1    0    0    -1  
$EndComp
$Comp
L power:GND #PWR0143
U 1 1 6189053A
P 10350 3550
F 0 "#PWR0143" H 10350 3300 50  0001 C CNN
F 1 "GND" H 10355 3377 50  0000 C CNN
F 2 "" H 10350 3550 50  0001 C CNN
F 3 "" H 10350 3550 50  0001 C CNN
	1    10350 3550
	1    0    0    -1  
$EndComp
$Comp
L power:GND #PWR0144
U 1 1 6189A4A9
P 9400 3850
F 0 "#PWR0144" H 9400 3600 50  0001 C CNN
F 1 "GND" H 9405 3677 50  0000 C CNN
F 2 "" H 9400 3850 50  0001 C CNN
F 3 "" H 9400 3850 50  0001 C CNN
	1    9400 3850
	1    0    0    -1  
$EndComp
$Comp
L power:GND #PWR0146
U 1 1 618A4C8D
P 4950 5500
F 0 "#PWR0146" H 4950 5250 50  0001 C CNN
F 1 "GND" H 4955 5327 50  0000 C CNN
F 2 "" H 4950 5500 50  0001 C CNN
F 3 "" H 4950 5500 50  0001 C CNN
	1    4950 5500
	1    0    0    -1  
$EndComp
Text Label 5900 1650 2    50   ~ 0
D+
Text Label 5900 1550 2    50   ~ 0
D-
Wire Wire Line
	8850 900  8850 850 
$Comp
L power:+BATT #PWR018
U 1 1 6165C369
P 8850 850
F 0 "#PWR018" H 8850 700 50  0001 C CNN
F 1 "+BATT" H 8865 1023 50  0000 C CNN
F 2 "" H 8850 850 50  0001 C CNN
F 3 "" H 8850 850 50  0001 C CNN
	1    8850 850 
	1    0    0    -1  
$EndComp
$Comp
L Interface_USB:CP2102N-Axx-xQFN24 U5
U 1 1 61687076
P 1800 5950
F 0 "U5" H 2050 4900 50  0000 C CNN
F 1 "CP2102N-Axx-xQFN24" H 2450 4800 50  0000 C CNN
F 2 "Package_DFN_QFN:QFN-24-1EP_4x4mm_P0.5mm_EP2.6x2.6mm" H 3050 4900 50  0001 C CNN
F 3 "https://www.silabs.com/documents/public/data-sheets/cp2102n-datasheet.pdf" H 1850 5200 50  0001 C CNN
	1    1800 5950
	1    0    0    -1  
$EndComp
Wire Wire Line
	10500 4150 10550 4150
Wire Wire Line
	10550 4150 10550 4250
Text Label 9600 4150 0    50   ~ 0
ESP_RST
Wire Wire Line
	9600 4150 9900 4150
$Comp
L Switch:SW_DIP_x01 SW2
U 1 1 617394EC
P 10200 4150
F 0 "SW2" H 10200 4417 50  0000 C CNN
F 1 "BootSwitch" H 10200 4326 50  0000 C CNN
F 2 "ams_iot_reader:EVPBT6A4A000" H 10200 4150 50  0001 C CNN
F 3 "~" H 10200 4150 50  0001 C CNN
	1    10200 4150
	1    0    0    -1  
$EndComp
$Comp
L power:GND #PWR021
U 1 1 617394F2
P 10550 4250
F 0 "#PWR021" H 10550 4000 50  0001 C CNN
F 1 "GND" H 10555 4077 50  0000 C CNN
F 2 "" H 10550 4250 50  0001 C CNN
F 3 "" H 10550 4250 50  0001 C CNN
	1    10550 4250
	1    0    0    -1  
$EndComp
Wire Wire Line
	8800 5000 8800 5650
$Comp
L power:+3V3 #PWR016
U 1 1 619096D6
P 8400 5650
F 0 "#PWR016" H 8400 5500 50  0001 C CNN
F 1 "+3V3" H 8415 5823 50  0000 C CNN
F 2 "" H 8400 5650 50  0001 C CNN
F 3 "" H 8400 5650 50  0001 C CNN
	1    8400 5650
	1    0    0    -1  
$EndComp
Wire Wire Line
	8400 5650 8400 5700
$Comp
L power:GND #PWR017
U 1 1 6191CD08
P 8400 6050
F 0 "#PWR017" H 8400 5800 50  0001 C CNN
F 1 "GND" H 8405 5877 50  0000 C CNN
F 2 "" H 8400 6050 50  0001 C CNN
F 3 "" H 8400 6050 50  0001 C CNN
	1    8400 6050
	1    0    0    -1  
$EndComp
Wire Notes Line
	8250 6500 8250 4700
Wire Notes Line
	8250 4700 9150 4700
Wire Notes Line
	9150 4700 9150 3100
Wire Notes Line
	8250 6500 11150 6500
Wire Wire Line
	8400 4300 8400 4350
$Comp
L power:GND #PWR0108
U 1 1 617AC49E
P 8400 4350
F 0 "#PWR0108" H 8400 4100 50  0001 C CNN
F 1 "GND" H 8405 4177 50  0000 C CNN
F 2 "" H 8400 4350 50  0001 C CNN
F 3 "" H 8400 4350 50  0001 C CNN
	1    8400 4350
	1    0    0    -1  
$EndComp
Wire Wire Line
	9900 2750 9900 2900
Text Label 9900 2900 1    50   ~ 0
~CHG
Text Label 8000 1150 2    50   ~ 0
~CHG
Wire Wire Line
	7800 1150 8000 1150
$Comp
L power:+BATT #PWR0133
U 1 1 6163BC43
P 8000 850
F 0 "#PWR0133" H 8000 700 50  0001 C CNN
F 1 "+BATT" H 8015 1023 50  0000 C CNN
F 2 "" H 8000 850 50  0001 C CNN
F 3 "" H 8000 850 50  0001 C CNN
	1    8000 850 
	1    0    0    -1  
$EndComp
Wire Wire Line
	8000 950  8000 850 
Wire Wire Line
	7800 950  8000 950 
Connection ~ 6750 950 
$Comp
L power:+BATT #PWR019
U 1 1 61B44D22
P 8850 2000
F 0 "#PWR019" H 8850 1850 50  0001 C CNN
F 1 "+BATT" H 8865 2173 50  0000 C CNN
F 2 "" H 8850 2000 50  0001 C CNN
F 3 "" H 8850 2000 50  0001 C CNN
	1    8850 2000
	1    0    0    -1  
$EndComp
$Comp
L power:GND #PWR020
U 1 1 61B4D9FB
P 8850 2600
F 0 "#PWR020" H 8850 2350 50  0001 C CNN
F 1 "GND" H 8855 2427 50  0000 C CNN
F 2 "" H 8850 2600 50  0001 C CNN
F 3 "" H 8850 2600 50  0001 C CNN
	1    8850 2600
	1    0    0    -1  
$EndComp
Wire Wire Line
	8850 2450 8850 2550
$Comp
L Device:C C9
U 1 1 61B4DA02
P 8850 2300
F 0 "C9" H 8965 2346 50  0000 L CNN
F 1 "1uF" H 8965 2255 50  0000 L CNN
F 2 "Capacitor_SMD:C_0603_1608Metric" H 8888 2150 50  0001 C CNN
F 3 "~" H 8850 2300 50  0001 C CNN
	1    8850 2300
	1    0    0    -1  
$EndComp
$Comp
L Device:C C14
U 1 1 61B602DF
P 9250 2300
F 0 "C14" H 9000 2350 50  0000 L CNN
F 1 "1uF" H 9000 2250 50  0000 L CNN
F 2 "Capacitor_SMD:C_0603_1608Metric" H 9288 2150 50  0001 C CNN
F 3 "~" H 9250 2300 50  0001 C CNN
F 4 "Ceramic" H 8850 2150 50  0000 L CNN "Type"
	1    9250 2300
	-1   0    0    -1  
$EndComp
Wire Wire Line
	8850 2150 8850 2050
Wire Wire Line
	9250 2050 9250 2150
Wire Wire Line
	8850 2000 8850 2050
Connection ~ 8850 2050
Wire Wire Line
	8850 2050 9250 2050
Wire Wire Line
	9250 2450 9250 2550
Connection ~ 8850 2550
Wire Wire Line
	8850 2550 9250 2550
Wire Wire Line
	8850 2550 8850 2600
Wire Wire Line
	9200 850  9200 900 
Wire Wire Line
	8850 1200 8850 1250
$Comp
L power:VBUS #PWR013
U 1 1 61C468A7
P 6750 900
F 0 "#PWR013" H 6750 750 50  0001 C CNN
F 1 "VBUS" H 6765 1073 50  0000 C CNN
F 2 "" H 6750 900 50  0001 C CNN
F 3 "" H 6750 900 50  0001 C CNN
	1    6750 900 
	1    0    0    -1  
$EndComp
Wire Wire Line
	6750 900  6750 950 
Wire Wire Line
	6400 1350 6900 1350
Wire Wire Line
	1300 5650 1100 5650
Wire Wire Line
	1300 5750 1100 5750
Text Label 1100 5750 0    50   ~ 0
D+
Text Label 1100 5650 0    50   ~ 0
D-
$Comp
L Connector:USB_C_Receptacle_USB2.0 J3
U 1 1 61CA6AB2
P 4500 1550
F 0 "J3" H 4607 2417 50  0000 C CNN
F 1 "USB_C_Receptacle_USB2.0" H 4607 2326 50  0000 C CNN
F 2 "Connector_USB:USB_C_Receptacle_HRO_TYPE-C-31-M-12" H 4650 1550 50  0001 C CNN
F 3 "https://www.usb.org/sites/default/files/documents/usb_type-c.zip" H 4650 1550 50  0001 C CNN
	1    4500 1550
	1    0    0    -1  
$EndComp
Wire Wire Line
	5100 1450 5100 1550
Connection ~ 5100 1550
Wire Wire Line
	5100 1650 5100 1750
Connection ~ 5100 1650
Text Label 5300 1150 2    50   ~ 0
CC1
Text Label 5300 1250 2    50   ~ 0
CC2
Wire Wire Line
	5100 1150 5300 1150
Wire Wire Line
	5100 1250 5300 1250
Wire Wire Line
	5400 1650 5400 1700
Wire Wire Line
	5100 1650 5400 1650
Wire Wire Line
	5700 1550 5700 1700
Wire Wire Line
	5100 1550 5700 1550
Wire Wire Line
	5400 2100 5400 2150
Wire Wire Line
	5400 2150 5550 2150
Wire Wire Line
	5700 2150 5700 2100
Wire Wire Line
	5550 2150 5550 2200
Connection ~ 5550 2150
Wire Wire Line
	5550 2150 5700 2150
$Comp
L ams_iot_reader:D5V0S1B2LP D10
U 1 1 61E4D322
P 6400 2300
F 0 "D10" H 6488 2300 50  0000 L CNN
F 1 "D5V0S1B2LP" H 6700 2250 50  0001 C CNN
F 2 "ams_iot_reader:X1-DFN1006-2" H 6400 2300 50  0001 C CNN
F 3 "" H 6400 2300 50  0001 C CNN
	1    6400 2300
	1    0    0    -1  
$EndComp
Wire Wire Line
	6750 2450 6750 2550
Wire Wire Line
	6400 2100 6400 2050
Wire Wire Line
	6400 2050 6750 2050
Connection ~ 6750 2050
Wire Wire Line
	6750 2050 6750 2150
Wire Wire Line
	6400 2500 6400 2550
Wire Wire Line
	6400 2550 6750 2550
Connection ~ 6750 2550
Wire Wire Line
	6400 2550 6400 2650
Connection ~ 5400 1650
Connection ~ 5700 1550
Wire Wire Line
	5700 1550 5900 1550
Wire Wire Line
	5400 1650 5900 1650
Wire Wire Line
	1700 800  1700 1350
$Comp
L power:+3V3 #PWR04
U 1 1 61F39C44
P 850 800
F 0 "#PWR04" H 850 650 50  0001 C CNN
F 1 "+3V3" H 865 973 50  0000 C CNN
F 2 "" H 850 800 50  0001 C CNN
F 3 "" H 850 800 50  0001 C CNN
	1    850  800 
	1    0    0    -1  
$EndComp
Wire Wire Line
	850  850  850  800 
$Comp
L Device:R_Small R24
U 1 1 61F72EAE
P 7850 2350
F 0 "R24" H 7909 2396 50  0000 L CNN
F 1 "36k" H 7909 2305 50  0000 L CNN
F 2 "Resistor_SMD:R_0603_1608Metric" H 7850 2350 50  0001 C CNN
F 3 "~" H 7850 2350 50  0001 C CNN
	1    7850 2350
	1    0    0    -1  
$EndComp
$Comp
L Device:R_Small R25
U 1 1 61F98F69
P 8200 2350
F 0 "R25" H 8259 2396 50  0000 L CNN
F 1 "36k" H 8259 2305 50  0000 L CNN
F 2 "Resistor_SMD:R_0603_1608Metric" H 8200 2350 50  0001 C CNN
F 3 "~" H 8200 2350 50  0001 C CNN
	1    8200 2350
	1    0    0    -1  
$EndComp
Text Label 7850 2000 3    50   ~ 0
CC1
Text Label 8200 2000 3    50   ~ 0
CC2
Wire Wire Line
	7850 2000 7850 2250
Wire Wire Line
	8200 2000 8200 2250
$Comp
L power:GND #PWR014
U 1 1 61FC845B
P 7850 2500
F 0 "#PWR014" H 7850 2250 50  0001 C CNN
F 1 "GND" H 7855 2327 50  0000 C CNN
F 2 "" H 7850 2500 50  0001 C CNN
F 3 "" H 7850 2500 50  0001 C CNN
	1    7850 2500
	1    0    0    -1  
$EndComp
$Comp
L power:GND #PWR015
U 1 1 61FC8504
P 8200 2500
F 0 "#PWR015" H 8200 2250 50  0001 C CNN
F 1 "GND" H 8205 2327 50  0000 C CNN
F 2 "" H 8200 2500 50  0001 C CNN
F 3 "" H 8200 2500 50  0001 C CNN
	1    8200 2500
	1    0    0    -1  
$EndComp
Wire Wire Line
	7850 2450 7850 2500
Wire Wire Line
	8200 2450 8200 2500
NoConn ~ 5100 2050
NoConn ~ 5100 2150
$Comp
L Device:C_Small C8
U 1 1 620B51DA
P 7200 2300
F 0 "C8" H 7292 2346 50  0000 L CNN
F 1 "0.1uF" H 7292 2255 50  0000 L CNN
F 2 "Capacitor_SMD:C_0603_1608Metric" H 7200 2300 50  0001 C CNN
F 3 "~" H 7200 2300 50  0001 C CNN
	1    7200 2300
	1    0    0    -1  
$EndComp
Wire Wire Line
	6750 2050 7200 2050
Wire Wire Line
	7200 2050 7200 2200
Wire Wire Line
	7200 2400 7200 2550
Wire Wire Line
	7200 2550 6750 2550
Connection ~ 6400 2550
Connection ~ 6400 2050
Wire Wire Line
	1300 5050 1150 5050
Wire Wire Line
	1150 5050 1150 5000
$Comp
L Device:R_Small R20
U 1 1 6210B8D7
P 1150 4900
F 0 "R20" H 1209 4946 50  0000 L CNN
F 1 "1k" H 1209 4855 50  0000 L CNN
F 2 "Resistor_SMD:R_0603_1608Metric" H 1150 4900 50  0001 C CNN
F 3 "~" H 1150 4900 50  0001 C CNN
	1    1150 4900
	1    0    0    -1  
$EndComp
Wire Wire Line
	1150 4800 1150 4750
$Comp
L power:+3V3 #PWR05
U 1 1 62119115
P 1150 4750
F 0 "#PWR05" H 1150 4600 50  0001 C CNN
F 1 "+3V3" H 1165 4923 50  0000 C CNN
F 2 "" H 1150 4750 50  0001 C CNN
F 3 "" H 1150 4750 50  0001 C CNN
	1    1150 4750
	1    0    0    -1  
$EndComp
$Comp
L power:GND #PWR07
U 1 1 6213252D
P 1800 7150
F 0 "#PWR07" H 1800 6900 50  0001 C CNN
F 1 "GND" H 1805 6977 50  0000 C CNN
F 2 "" H 1800 7150 50  0001 C CNN
F 3 "" H 1800 7150 50  0001 C CNN
	1    1800 7150
	1    0    0    -1  
$EndComp
Wire Wire Line
	1800 7050 1800 7150
Wire Wire Line
	2300 6250 2550 6250
Wire Wire Line
	2300 6350 2550 6350
Text Label 2550 6250 2    50   ~ 0
~TXT
Text Label 2550 6350 2    50   ~ 0
~RXT
$Comp
L Device:LED D8
U 1 1 6215B83A
P 4200 7050
F 0 "D8" V 4239 6932 50  0000 R CNN
F 1 "TX" V 4148 6932 50  0000 R CNN
F 2 "Diode_SMD:D_0603_1608Metric" H 4200 7050 50  0001 C CNN
F 3 "~" H 4200 7050 50  0001 C CNN
	1    4200 7050
	0    -1   -1   0   
$EndComp
$Comp
L Device:R R23
U 1 1 6215B840
P 4200 6700
F 0 "R23" H 4270 6746 50  0000 L CNN
F 1 "316R" H 4270 6655 50  0000 L CNN
F 2 "Resistor_SMD:R_0603_1608Metric" V 4130 6700 50  0001 C CNN
F 3 "~" H 4200 6700 50  0001 C CNN
	1    4200 6700
	1    0    0    -1  
$EndComp
Wire Wire Line
	4200 6850 4200 6900
Wire Wire Line
	4200 6500 4200 6550
Wire Wire Line
	4200 7200 4200 7450
Text Label 4200 7450 1    50   ~ 0
~TXT
$Comp
L Device:LED D7
U 1 1 62169654
P 3800 7050
F 0 "D7" V 3839 6932 50  0000 R CNN
F 1 "RX" V 3748 6932 50  0000 R CNN
F 2 "Diode_SMD:D_0603_1608Metric" H 3800 7050 50  0001 C CNN
F 3 "~" H 3800 7050 50  0001 C CNN
	1    3800 7050
	0    -1   -1   0   
$EndComp
$Comp
L Device:R R22
U 1 1 6216965A
P 3800 6700
F 0 "R22" H 3870 6746 50  0000 L CNN
F 1 "316R" H 3870 6655 50  0000 L CNN
F 2 "Resistor_SMD:R_0603_1608Metric" V 3730 6700 50  0001 C CNN
F 3 "~" H 3800 6700 50  0001 C CNN
	1    3800 6700
	1    0    0    -1  
$EndComp
Wire Wire Line
	3800 6850 3800 6900
Wire Wire Line
	3800 6500 3800 6550
Wire Wire Line
	3800 7200 3800 7450
Text Label 3800 7450 1    50   ~ 0
~RXT
$Comp
L power:+3V3 #PWR09
U 1 1 621A1A4F
P 3800 6500
F 0 "#PWR09" H 3800 6350 50  0001 C CNN
F 1 "+3V3" H 3815 6673 50  0000 C CNN
F 2 "" H 3800 6500 50  0001 C CNN
F 3 "" H 3800 6500 50  0001 C CNN
	1    3800 6500
	1    0    0    -1  
$EndComp
$Comp
L power:+3V3 #PWR010
U 1 1 621A286D
P 4200 6500
F 0 "#PWR010" H 4200 6350 50  0001 C CNN
F 1 "+3V3" H 4215 6673 50  0000 C CNN
F 2 "" H 4200 6500 50  0001 C CNN
F 3 "" H 4200 6500 50  0001 C CNN
	1    4200 6500
	1    0    0    -1  
$EndComp
NoConn ~ 2300 5650
NoConn ~ 2300 5750
NoConn ~ 2300 5950
NoConn ~ 2300 5450
NoConn ~ 2300 5350
Wire Wire Line
	2300 6050 2850 6050
Wire Wire Line
	2850 6050 2850 6150
$Comp
L Device:R_Small R21
U 1 1 6221517E
P 2850 6250
F 0 "R21" H 2909 6296 50  0000 L CNN
F 1 "10k" H 2909 6205 50  0000 L CNN
F 2 "Resistor_SMD:R_0603_1608Metric" H 2850 6250 50  0001 C CNN
F 3 "~" H 2850 6250 50  0001 C CNN
	1    2850 6250
	1    0    0    -1  
$EndComp
Wire Wire Line
	2850 6350 2850 6450
$Comp
L power:GND #PWR08
U 1 1 62224C64
P 2850 6450
F 0 "#PWR08" H 2850 6200 50  0001 C CNN
F 1 "GND" H 2855 6277 50  0000 C CNN
F 2 "" H 2850 6450 50  0001 C CNN
F 3 "" H 2850 6450 50  0001 C CNN
	1    2850 6450
	1    0    0    -1  
$EndComp
NoConn ~ 2300 6450
NoConn ~ 2300 6550
$Comp
L power:VBUS #PWR06
U 1 1 62242999
P 1700 4700
F 0 "#PWR06" H 1700 4550 50  0001 C CNN
F 1 "VBUS" H 1715 4873 50  0000 C CNN
F 2 "" H 1700 4700 50  0001 C CNN
F 3 "" H 1700 4700 50  0001 C CNN
	1    1700 4700
	1    0    0    -1  
$EndComp
Wire Wire Line
	1700 4850 1700 4700
NoConn ~ 1800 4850
$Comp
L Device:R_Small R19
U 1 1 62270000
P 800 5800
F 0 "R19" H 859 5846 50  0000 L CNN
F 1 "47k5" H 859 5755 50  0000 L CNN
F 2 "Resistor_SMD:R_0603_1608Metric" H 800 5800 50  0001 C CNN
F 3 "~" H 800 5800 50  0001 C CNN
	1    800  5800
	1    0    0    -1  
$EndComp
$Comp
L Device:R_Small R16
U 1 1 62270AED
P 800 5300
F 0 "R16" H 859 5346 50  0000 L CNN
F 1 "22k1" H 859 5255 50  0000 L CNN
F 2 "Resistor_SMD:R_0603_1608Metric" H 800 5300 50  0001 C CNN
F 3 "~" H 800 5300 50  0001 C CNN
	1    800  5300
	1    0    0    -1  
$EndComp
Wire Wire Line
	800  5550 800  5700
Connection ~ 800  5550
Wire Wire Line
	800  5400 800  5550
Wire Wire Line
	800  5200 800  5000
Wire Wire Line
	800  5900 800  6100
$Comp
L power:GND #PWR03
U 1 1 622EA03D
P 800 6100
F 0 "#PWR03" H 800 5850 50  0001 C CNN
F 1 "GND" H 805 5927 50  0000 C CNN
F 2 "" H 800 6100 50  0001 C CNN
F 3 "" H 800 6100 50  0001 C CNN
	1    800  6100
	1    0    0    -1  
$EndComp
Wire Wire Line
	800  5550 1300 5550
NoConn ~ 1900 4850
NoConn ~ 2950 5550
NoConn ~ 2950 5250
Text Notes 2750 5650 0    50   ~ 0
*See note 3
Text Label 2950 5250 2    50   ~ 0
~RTS
Text Label 2950 5550 2    50   ~ 0
~DTR
Wire Wire Line
	2300 5250 2950 5250
Wire Wire Line
	2950 5550 2300 5550
$Comp
L Mechanical:MountingHole_Pad H1
U 1 1 61640D34
P 650 3600
F 0 "H1" H 750 3603 50  0000 L CNN
F 1 "MountingHole_Pad" H 750 3558 50  0001 L CNN
F 2 "MountingHole:MountingHole_2.2mm_M2_ISO7380_Pad" H 650 3600 50  0001 C CNN
F 3 "~" H 650 3600 50  0001 C CNN
	1    650  3600
	1    0    0    -1  
$EndComp
$Comp
L Mechanical:MountingHole_Pad H2
U 1 1 61641E04
P 950 3600
F 0 "H2" H 1050 3603 50  0000 L CNN
F 1 "MountingHole_Pad" H 1050 3558 50  0001 L CNN
F 2 "MountingHole:MountingHole_2.2mm_M2_ISO7380_Pad" H 950 3600 50  0001 C CNN
F 3 "~" H 950 3600 50  0001 C CNN
	1    950  3600
	1    0    0    -1  
$EndComp
$Comp
L Mechanical:MountingHole_Pad H3
U 1 1 616510B4
P 1250 3600
F 0 "H3" H 1350 3603 50  0000 L CNN
F 1 "MountingHole_Pad" H 1350 3558 50  0001 L CNN
F 2 "MountingHole:MountingHole_2.2mm_M2_ISO7380_Pad" H 1250 3600 50  0001 C CNN
F 3 "~" H 1250 3600 50  0001 C CNN
	1    1250 3600
	1    0    0    -1  
$EndComp
$Comp
L Mechanical:MountingHole_Pad H4
U 1 1 6166023D
P 1550 3600
F 0 "H4" H 1650 3603 50  0000 L CNN
F 1 "MountingHole_Pad" H 1650 3558 50  0001 L CNN
F 2 "MountingHole:MountingHole_2.2mm_M2_ISO7380_Pad" H 1550 3600 50  0001 C CNN
F 3 "~" H 1550 3600 50  0001 C CNN
	1    1550 3600
	1    0    0    -1  
$EndComp
$Comp
L power:GND #PWR01
U 1 1 616BD0BD
P 650 3750
F 0 "#PWR01" H 650 3500 50  0001 C CNN
F 1 "GND" H 655 3577 50  0000 C CNN
F 2 "" H 650 3750 50  0001 C CNN
F 3 "" H 650 3750 50  0001 C CNN
	1    650  3750
	1    0    0    -1  
$EndComp
Wire Wire Line
	650  3700 650  3750
Wire Wire Line
	650  3700 950  3700
Connection ~ 650  3700
Connection ~ 950  3700
Wire Wire Line
	950  3700 1250 3700
Connection ~ 1250 3700
Wire Wire Line
	1250 3700 1550 3700
Text Label 5950 4150 0    50   ~ 0
CC1
Text Label 5950 4250 0    50   ~ 0
CC2
Wire Wire Line
	6300 4150 5950 4150
Wire Wire Line
	6300 4250 5950 4250
$Comp
L power:VBUS #PWR0124
U 1 1 61887AF2
P 6400 2000
F 0 "#PWR0124" H 6400 1850 50  0001 C CNN
F 1 "VBUS" H 6415 2173 50  0000 C CNN
F 2 "" H 6400 2000 50  0001 C CNN
F 3 "" H 6400 2000 50  0001 C CNN
	1    6400 2000
	1    0    0    -1  
$EndComp
$Comp
L power:VBUS #PWR0136
U 1 1 618A899B
P 800 5000
F 0 "#PWR0136" H 800 4850 50  0001 C CNN
F 1 "VBUS" H 815 5173 50  0000 C CNN
F 2 "" H 800 5000 50  0001 C CNN
F 3 "" H 800 5000 50  0001 C CNN
	1    800  5000
	1    0    0    -1  
$EndComp
$Comp
L power:GND #PWR0137
U 1 1 618BB4EE
P 5550 2200
F 0 "#PWR0137" H 5550 1950 50  0001 C CNN
F 1 "GND" H 5555 2027 50  0000 C CNN
F 2 "" H 5550 2200 50  0001 C CNN
F 3 "" H 5550 2200 50  0001 C CNN
	1    5550 2200
	1    0    0    -1  
$EndComp
$Comp
L power:PWR_FLAG #FLG0103
U 1 1 61905139
P 5300 950
F 0 "#FLG0103" H 5300 1025 50  0001 C CNN
F 1 "PWR_FLAG" V 5300 1078 50  0000 L CNN
F 2 "" H 5300 950 50  0001 C CNN
F 3 "~" H 5300 950 50  0001 C CNN
	1    5300 950 
	0    1    1    0   
$EndComp
Connection ~ 5300 950 
Connection ~ 10350 3500
$Comp
L power:PWR_FLAG #FLG0102
U 1 1 618CE3BD
P 10350 3500
F 0 "#FLG0102" H 10350 3575 50  0001 C CNN
F 1 "PWR_FLAG" V 10350 3627 50  0000 L CNN
F 2 "" H 10350 3500 50  0001 C CNN
F 3 "~" H 10350 3500 50  0001 C CNN
	1    10350 3500
	0    -1   -1   0   
$EndComp
$Comp
L ams_iot_reader:NVC8164ASN330 U4
U 1 1 613A2F1B
P 9650 1050
F 0 "U4" H 9650 1425 50  0000 C CNN
F 1 "NVC8164ASN330" H 9650 1334 50  0000 C CNN
F 2 "Package_SO:TSOP-5_1.65x3.05mm_P0.95mm" H 9650 1050 50  0001 C CNN
F 3 "" H 9650 1050 50  0001 C CNN
	1    9650 1050
	1    0    0    -1  
$EndComp
Text Notes 2550 700  0    50   ~ 0
*Note 4
$Comp
L ams_iot_reader:ESD122 D9
U 2 1 616D9D73
P 5700 1900
F 0 "D9" H 5787 1900 50  0000 L CNN
F 1 "ESD122" H 6000 1850 50  0001 C CNN
F 2 "ams_iot_reader:Texas_X2SON-DMY-3_Pin" H 5900 1950 50  0001 C CNN
F 3 "https://www.ti.com/lit/ds/symlink/esd122.pdf?HQS=dis-mous-null-mousermode-dsf-pf-null-wwe&DCM=yes&ref_url=https%3A%2F%2Fno.mouser.com%2F&distId=26" H 5900 1950 50  0001 C CNN
	2    5700 1900
	1    0    0    -1  
$EndComp
$Comp
L ams_iot_reader:ESD122 D9
U 1 1 616DAE02
P 5400 1900
F 0 "D9" H 5488 1900 50  0000 L CNN
F 1 "ESD122" H 5700 1850 50  0001 C CNN
F 2 "ams_iot_reader:Texas_X2SON-DMY-3_Pin" H 5600 1950 50  0001 C CNN
F 3 "https://www.ti.com/lit/ds/symlink/esd122.pdf?HQS=dis-mous-null-mousermode-dsf-pf-null-wwe&DCM=yes&ref_url=https%3A%2F%2Fno.mouser.com%2F&distId=26" H 5600 1950 50  0001 C CNN
	1    5400 1900
	1    0    0    -1  
$EndComp
$EndSCHEMATC
