(module X1-DFN1006-2 (layer F.Cu) (tedit 616C745F)
  (fp_text reference REF** (at 0.5 -3.4) (layer F.SilkS)
    (effects (font (size 1 1) (thickness 0.15)))
  )
  (fp_text value X1-DFN1006-2 (at 0.5 -4.4) (layer F.Fab)
    (effects (font (size 1 1) (thickness 0.15)))
  )
  (fp_line (start -0.275 -0.35) (end -0.275 0.35) (layer F.SilkS) (width 0.07))
  (fp_line (start 0.275 -0.35) (end 0.275 0.35) (layer F.SilkS) (width 0.07))
  (fp_line (start -0.175 -0.335) (end 0.9 -0.335) (layer F.CrtYd) (width 0.06))
  (fp_line (start 0.9 -0.335) (end 0.9 0.34) (layer F.CrtYd) (width 0.06))
  (fp_line (start -0.175 -0.335) (end -0.175 0.34) (layer F.CrtYd) (width 0.06))
  (fp_line (start -0.175 0.34) (end 0.9 0.34) (layer F.CrtYd) (width 0.06))
  (pad 1 smd rect (at 0 0) (size 0.4 0.7) (layers F.Cu F.Paste F.Mask))
  (pad 2 smd rect (at 0.7 0 180) (size 0.4 0.7) (layers F.Cu F.Paste F.Mask))
)
